# 3ds Max Wavefront OBJ Exporter v0.97b - (c)2007 guruware
# File Created: 19.09.2014 14:06:13

mtllib Barrel.mtl

#
# object Mesh_0104
#

v  39.611847 -61.527443 -1.998566
v  37.524445 -19.041359 7.753143
v  38.879333 -61.536034 7.817352
v  38.269043 -19.032761 -2.062759
v  37.792938 -61.599739 -11.671753
v  36.450134 -19.105057 -11.735962
v  33.532745 -61.748039 -20.543060
v  32.189941 -19.253357 -20.607254
v  27.111847 -61.962242 -28.007957
v  25.769043 -19.467552 -28.072166
v  18.994141 -62.227745 -33.557755
v  17.639160 -19.733055 -33.621948
v  9.704529 -62.526451 -36.814148
v  8.361847 -20.031754 -36.878349
v  -0.109833 -62.837944 -37.555252
v  -1.452637 -20.343254 -37.619453
v  -9.777863 -63.141151 -35.730553
v  -11.120667 -20.646454 -35.794754
v  -18.640137 -63.415245 -31.464554
v  -19.982971 -20.920555 -31.528656
v  -26.098663 -63.641640 -25.047653
v  -27.453644 -21.146957 -25.111862
v  -31.652802 -63.804848 -16.917465
v  -32.995636 -21.310158 -16.981659
v  -34.899933 -63.893852 -7.627853
v  -36.254822 -21.399155 -7.692062
v  -35.644501 -63.902443 2.188049
v  -36.987335 -21.407761 2.123840
v  -33.825623 -63.830147 11.861252
v  -35.168427 -21.335457 11.797043
v  -29.565460 -63.681847 20.732544
v  -30.908234 -21.187157 20.668350
v  -23.144562 -63.467644 28.197556
v  -24.487366 -20.972954 28.133347
v  -15.026855 -63.202141 33.747238
v  -16.369659 -20.707458 33.683044
v  -5.737366 -62.903450 37.003647
v  -7.080048 -20.408752 36.939453
v  4.077148 -62.591942 37.744751
v  2.734344 -20.097252 37.680557
v  13.745148 -62.288734 35.920044
v  12.402344 -19.794060 35.855850
v  22.607452 -62.014641 31.653946
v  21.264648 -19.519958 31.589859
v  30.065948 -61.788246 25.237152
v  28.723145 -19.293556 25.172943
v  35.620148 -61.625038 17.106949
v  34.277344 -19.130356 17.042740
v  38.879333 -61.536034 7.817352
v  37.524445 -19.041359 7.753143
v  38.146942 -15.174057 -2.068565
v  36.364746 17.599941 7.697845
v  37.402344 -15.182755 7.747345
v  37.109344 17.608547 -2.118050
v  36.328156 -15.246353 -11.741753
v  35.290558 17.536247 -11.791252
v  32.067841 -15.394653 -20.613060
v  31.030243 17.387951 -20.662651
v  25.646942 -15.608856 -28.077957
v  24.609344 17.173748 -28.127548
v  17.517029 -15.874352 -33.627853
v  16.491638 16.908245 -33.677345
v  8.239746 -16.173058 -36.884155
v  7.202148 16.609550 -36.933647
v  -1.574768 -16.484657 -37.625351
v  -2.612366 16.298050 -37.674744
v  -11.242645 -16.787750 -35.800552
v  -12.280243 15.994846 -35.850044
v  -20.104950 -17.061859 -31.534554
v  -21.142548 15.720749 -31.584045
v  -27.575653 -17.288254 -25.117653
v  -28.601044 15.494347 -25.167160
v  -33.117615 -17.451561 -16.987465
v  -34.155212 15.331150 -17.036949
v  -36.376923 -17.540459 -7.697853
v  -37.414520 15.242146 -7.747353
v  -37.109314 -17.549156 2.117950
v  -38.146912 15.233547 2.068451
v  -35.290497 -17.476852 11.791138
v  -36.328094 15.305843 11.741653
v  -31.030212 -17.328560 20.662552
v  -32.067841 15.454144 20.613052
v  -24.609344 -17.114357 28.127548
v  -25.646942 15.668346 28.078049
v  -16.491760 -16.848854 33.677246
v  -17.529266 15.933842 33.627747
v  -7.202148 -16.550156 36.933548
v  -8.239746 16.232544 36.884048
v  2.612335 -16.238556 37.674744
v  1.574738 16.544044 37.625259
v  12.280243 -15.935455 35.850052
v  11.242645 16.847244 35.800552
v  21.142548 -15.661354 31.583954
v  20.104950 17.121346 31.534439
v  28.601044 -15.434952 25.167053
v  27.563446 17.347744 25.117645
v  34.155243 -15.271660 17.036850
v  33.117645 17.510944 16.987350
v  37.402344 -15.182755 7.747345
v  36.364746 17.599941 7.697845
v  36.987335 21.371948 -2.123749
v  34.899933 63.893742 7.627838
v  36.254852 21.363342 7.692139
v  35.644562 63.902439 -2.188049
v  35.168457 21.299648 -11.796951
v  33.825653 63.830139 -11.861252
v  30.908234 21.151344 -20.668350
v  29.565460 63.681839 -20.732544
v  24.487335 20.937149 -28.133156
v  23.144562 63.467640 -28.197456
v  16.369659 20.671646 -33.683044
v  15.026855 63.202141 -33.747246
v  7.080048 20.373047 -36.939346
v  5.737335 62.903442 -37.003647
v  -2.734344 20.061443 -37.680450
v  -4.077148 62.591942 -37.744743
v  -12.402344 19.758247 -35.855843
v  -13.745148 62.288742 -35.920044
v  -21.264648 19.484150 -31.589745
v  -22.607452 62.014641 -31.653946
v  -28.723145 19.257748 -25.172852
v  -30.065948 61.788242 -25.237152
v  -34.277313 19.094551 -17.042648
v  -35.620148 61.625042 -17.106949
v  -37.524445 19.005547 -7.753052
v  -38.879333 61.536041 -7.817352
v  -38.269012 18.996948 2.062851
v  -39.611847 61.527439 1.998550
v  -36.450134 19.069244 11.736053
v  -37.792938 61.599739 11.671738
v  -32.177704 19.217545 20.607346
v  -33.532745 61.748039 20.543152
v  -25.769043 19.431740 28.072342
v  -27.111847 61.962242 28.008057
v  -17.639160 19.697243 33.622055
v  -18.994141 62.227741 33.557846
v  -8.361847 19.995941 36.878448
v  -9.704559 62.526340 36.814148
v  1.452667 20.307442 37.619553
v  0.109863 62.837936 37.555252
v  11.120636 20.610645 35.794861
v  9.777863 63.141037 35.730652
v  19.982941 20.884743 31.528748
v  18.640167 63.415237 31.464554
v  27.453644 21.111145 25.111954
v  26.098663 63.641541 25.047653
v  32.995636 21.274342 16.981750
v  31.652863 63.804840 16.917450
v  36.254852 21.363342 7.692139
v  34.899933 63.893742 7.627838
v  22.082550 -60.031242 30.947845
v  34.802246 -59.650337 16.724854
v  29.382355 -59.809944 24.673950
v  3.967255 -60.595650 36.902954
v  -28.918457 -61.661339 20.269745
v  -0.122040 -60.836250 -36.719551
v  32.763641 -59.770546 -20.086357
v  38.708435 -59.554848 -1.954956
v  37.988251 -59.563347 7.642242
v  13.415558 -60.299248 35.118942
v  36.926239 -59.625542 -11.412651
v  -14.709442 -61.192345 32.994446
v  -22.656250 -61.451836 27.568344
v  -5.627441 -60.900230 36.178345
v  -34.875427 -61.876945 2.138351
v  -33.093231 -61.806343 11.596161
v  -30.969208 -61.781548 -16.541451
v  -18.249573 -61.400642 -30.764351
v  -9.570374 -61.132652 -34.935555
v  -34.143036 -61.868538 -7.458755
v  -25.537170 -61.621941 -24.490555
v  18.542450 -60.239540 -32.811058
v  9.472656 -60.531639 -35.994957
v  26.489258 -59.980034 -27.384956
v  38.269043 -19.032761 -2.062759
v  38.464355 -17.660957 7.955841
v  37.524445 -19.041359 7.753143
v  39.221130 -17.652161 -2.120255
v  38.427765 -16.500656 7.954147
v  39.184540 -16.491859 -2.122055
v  37.402344 -15.182755 7.747345
v  38.146942 -15.174057 -2.068565
v  36.450134 -19.105057 -11.735962
v  37.353546 -17.726357 -12.049957
v  37.316833 -16.566055 -12.051758
v  36.328156 -15.246353 -11.741753
v  32.946747 -16.718254 -21.158356
v  32.067841 -15.394653 -20.613060
v  32.189941 -19.253357 -20.607254
v  32.983337 -17.878555 -21.156654
v  26.391541 -18.098457 -28.819450
v  26.354950 -16.938156 -28.821251
v  25.646942 -15.608856 -28.077957
v  18.017548 -17.210655 -34.518158
v  17.517029 -15.874352 -33.627853
v  25.769043 -19.467552 -28.072166
v  17.639160 -19.733055 -33.621948
v  18.054138 -18.370956 -34.516449
v  8.520538 -18.677658 -37.859253
v  8.483856 -17.517258 -37.861053
v  8.239746 -16.173058 -36.884155
v  -1.586945 -17.837059 -38.621658
v  -1.574768 -16.484657 -37.625351
v  8.361847 -20.031754 -36.878349
v  -1.452637 -20.343254 -37.619453
v  -1.550262 -18.997459 -38.619949
v  -11.474670 -19.308655 -36.746948
v  -11.511261 -18.148354 -36.748650
v  -11.242645 -16.787750 -35.800552
v  -20.617645 -18.429657 -32.369453
v  -20.104950 -17.061859 -31.534554
v  -11.120667 -20.646454 -35.794754
v  -19.982971 -20.920555 -31.528656
v  -20.581055 -19.589958 -32.367653
v  -28.234833 -19.822357 -25.780663
v  -28.271454 -18.662056 -25.782356
v  -27.575653 -17.288254 -25.117653
v  -33.972137 -18.829651 -17.436562
v  -33.117615 -17.451561 -16.987465
v  -27.453644 -21.146957 -25.111862
v  -32.995636 -21.310158 -16.981659
v  -33.935516 -19.989952 -17.434853
v  -37.268036 -20.081253 -7.898865
v  -37.304626 -18.920959 -7.900665
v  -36.376923 -17.540459 -7.697853
v  -38.073700 -18.929855 2.175537
v  -37.109314 -17.549156 2.117950
v  -36.254822 -21.399155 -7.692062
v  -36.987335 -21.407761 2.123840
v  -38.037140 -20.090157 2.177246
v  -36.157196 -20.015961 12.107056
v  -36.193817 -18.855652 12.105255
v  -35.290497 -17.476852 11.791138
v  -31.823700 -18.703362 21.211853
v  -31.030212 -17.328560 20.662552
v  -35.168427 -21.335457 11.797043
v  -30.908234 -21.187157 20.668350
v  -31.787140 -19.863655 21.213654
v  -25.195374 -19.643852 28.876648
v  -25.231964 -18.483459 28.874847
v  -24.609344 -17.114357 28.127548
v  -16.894562 -18.210960 34.571747
v  -16.491760 -16.848854 33.677246
v  -24.487366 -20.972954 28.133347
v  -16.369659 -20.707458 33.683044
v  -16.857971 -19.371262 34.573441
v  -7.324249 -19.064659 37.916260
v  -7.360840 -17.904358 37.914551
v  -7.202148 -16.550156 36.933548
v  2.709961 -17.584557 38.675247
v  2.612335 -16.238556 37.674744
v  -7.080048 -20.408752 36.939453
v  2.734344 -20.097252 37.680557
v  2.746552 -18.744858 38.676956
v  12.670837 -18.433662 36.803955
v  12.634247 -17.273361 36.802246
v  12.280243 -15.935455 35.850052
v  21.728546 -16.991959 32.422943
v  21.142548 -15.661354 31.583954
v  12.402344 -19.794060 35.855850
v  21.264648 -19.519958 31.589859
v  21.765167 -18.152260 32.424744
v  29.431152 -17.919853 25.837646
v  29.394562 -16.759552 25.835953
v  28.601044 -15.434952 25.167053
v  35.083038 -16.591957 17.490143
v  34.155243 -15.271660 17.036850
v  28.723145 -19.293556 25.172943
v  34.277344 -19.130356 17.042740
v  35.119659 -17.752357 17.491852
v  38.464355 -17.660957 7.955841
v  38.427765 -16.500656 7.954147
v  37.402344 -15.182755 7.747345
v  37.524445 -19.041359 7.753143
v  37.109344 17.608547 -2.118050
v  37.304626 18.941845 7.900543
v  36.364746 17.599941 7.697845
v  38.073761 18.950748 -2.175545
v  37.268036 20.083847 7.898849
v  38.037140 20.092751 -2.177254
v  36.254852 21.363342 7.692139
v  36.987335 21.371948 -2.123749
v  35.290558 17.536247 -11.791252
v  36.193848 18.876446 -12.105255
v  36.157257 20.018547 -12.106956
v  35.168457 21.299648 -11.796951
v  31.787140 19.866245 -21.213654
v  30.908234 21.151344 -20.668350
v  31.030243 17.387951 -20.662651
v  31.823761 18.724251 -21.211853
v  25.231964 18.504345 -28.874741
v  25.195343 19.646347 -28.876442
v  24.487335 20.937149 -28.133156
v  16.857941 19.373844 -34.573441
v  16.369659 20.671646 -33.683044
v  24.609344 17.173748 -28.127548
v  16.491638 16.908245 -33.677345
v  16.894562 18.231850 -34.571747
v  7.360840 17.925251 -37.914543
v  7.324249 19.067245 -37.916245
v  7.080048 20.373047 -36.939346
v  -2.746552 18.747448 -38.676941
v  -2.734344 20.061443 -37.680450
v  7.202148 16.609550 -36.933647
v  -2.612366 16.298050 -37.674744
v  -2.709930 17.605446 -38.675247
v  -12.634247 17.294247 -36.802246
v  -12.670959 18.436245 -36.803947
v  -12.402344 19.758247 -35.855843
v  -21.765137 18.154846 -32.424644
v  -21.264648 19.484150 -31.589745
v  -12.280243 15.994846 -35.850044
v  -21.142548 15.720749 -31.584045
v  -21.728546 17.012844 -32.422943
v  -29.394562 16.780449 -25.835953
v  -29.431152 17.922447 -25.837646
v  -28.723145 19.257748 -25.172852
v  -35.119598 17.754845 -17.491852
v  -34.277313 19.094551 -17.042648
v  -28.601044 15.494347 -25.167160
v  -34.155212 15.331150 -17.036949
v  -35.083038 16.612846 -17.490051
v  -38.427704 16.521549 -7.954147
v  -38.464325 17.663551 -7.955849
v  -37.524445 19.005547 -7.753052
v  -39.221130 17.654747 2.120239
v  -38.269012 18.996948 2.062851
v  -37.414520 15.242146 -7.747353
v  -38.146912 15.233547 2.068451
v  -39.184540 16.512650 2.122040
v  -37.316833 16.586945 12.051743
v  -37.353546 17.728943 12.050049
v  -36.450134 19.069244 11.736053
v  -32.983429 17.881145 21.156647
v  -32.177704 19.217545 20.607346
v  -36.328094 15.305843 11.741653
v  -32.067841 15.454144 20.613052
v  -32.946716 16.739143 21.158356
v  -26.354950 16.959042 28.821259
v  -26.391663 18.101044 28.819550
v  -25.769043 19.431740 28.072342
v  -18.054260 18.373543 34.516449
v  -17.639160 19.697243 33.622055
v  -25.646942 15.668346 28.078049
v  -17.529266 15.933842 33.627747
v  -18.017548 17.231544 34.518143
v  -8.483856 17.538143 37.860947
v  -8.520569 18.680145 37.859253
v  -8.361847 19.995941 36.878448
v  1.550232 18.999943 38.619949
v  1.452667 20.307442 37.619553
v  -8.239746 16.232544 36.884048
v  1.574738 16.544044 37.625259
v  1.586945 17.857941 38.621658
v  11.511261 18.169144 36.748749
v  11.474640 19.311142 36.746948
v  11.120636 20.610645 35.794861
v  20.581055 19.592545 32.367645
v  19.982941 20.884743 31.528748
v  11.242645 16.847244 35.800552
v  20.104950 17.121346 31.534439
v  20.617645 18.450542 32.369354
v  28.271454 18.682945 25.782349
v  28.234863 19.824940 25.780655
v  27.453644 21.111145 25.111954
v  33.935547 19.992542 17.434845
v  32.995636 21.274342 16.981750
v  27.563446 17.347744 25.117645
v  33.117645 17.510944 16.987350
v  33.959961 18.850544 17.436554
v  37.304626 18.941845 7.900543
v  37.268036 20.083847 7.898849
v  36.254852 21.363342 7.692139
v  36.364746 17.599941 7.697845
v  -4.028351 62.594444 -36.974945
v  5.627441 61.242641 -36.246544
v  5.578644 62.899544 -36.249039
v  -3.979462 60.937443 -36.972549
v  5.578644 62.899544 -36.249039
v  14.721649 61.535244 -33.056847
v  14.672852 63.192142 -33.059250
v  5.627441 61.242641 -36.246544
v  14.672852 63.192142 -33.059250
v  22.680634 61.795242 -27.620354
v  22.631866 63.452240 -27.622948
v  14.721649 61.535244 -33.056847
v  22.631866 63.452240 -27.622948
v  28.967255 62.005043 -20.308151
v  28.918457 63.662041 -20.310654
v  22.680634 61.795242 -27.620354
v  28.918457 63.662041 -20.310654
v  33.142029 62.150341 -11.618149
v  33.093262 63.807343 -11.620651
v  28.967255 62.005043 -20.308151
v  33.093262 63.807343 -11.620651
v  34.924347 62.221142 -2.142754
v  34.875427 63.878139 -2.145149
v  33.142029 62.150341 -11.618149
v  34.875427 63.878139 -2.145149
v  34.204041 62.212738 7.472549
v  34.155243 63.869640 7.469955
v  34.924347 62.221142 -2.142754
v  34.155243 63.869640 7.469955
v  31.018036 62.125538 16.572250
v  30.957062 63.782539 16.569748
v  34.204041 62.212738 7.472549
v  30.957062 63.782539 16.569748
v  25.585968 61.965637 24.536148
v  25.524933 63.622639 24.533646
v  31.018036 62.125538 16.572250
v  25.524933 63.622639 24.533646
v  18.273956 61.743938 30.821747
v  18.225037 63.400841 30.819244
v  25.585968 61.965637 24.536148
v  18.225037 63.400841 30.819244
v  9.582550 61.475441 35.000748
v  9.533630 63.132339 34.998245
v  18.273956 61.743938 30.821747
v  9.533630 63.132339 34.998245
v  0.109863 61.178436 36.788040
v  0.061066 62.835438 36.785553
v  9.582550 61.475441 35.000748
v  0.061066 62.835438 36.785553
v  -9.497040 60.873238 36.062149
v  -9.545959 62.530239 36.059647
v  0.109863 61.178436 36.788040
v  -9.545959 62.530239 36.059647
v  -18.591370 60.580643 32.872360
v  -18.640137 62.237640 32.869858
v  -9.497040 60.873238 36.062149
v  -18.640137 62.237640 32.869858
v  -26.550262 60.320641 27.435944
v  -26.599152 61.977638 27.433548
v  -18.591370 60.580643 32.872360
v  -26.599152 61.977638 27.433548
v  -32.836945 60.110840 20.123749
v  -32.885712 61.767738 20.121246
v  -26.550262 60.320641 27.435944
v  -32.885712 61.767738 20.121246
v  -37.011749 59.965542 11.433746
v  -37.060516 61.622543 11.431259
v  -32.836945 60.110840 20.123749
v  -37.060516 61.622543 11.431259
v  -38.793915 59.894741 1.958252
v  -38.842712 61.551643 1.955750
v  -37.011749 59.965542 11.433746
v  -38.842712 61.551643 1.955750
v  -38.073700 59.903141 -7.656960
v  -38.122528 61.560143 -7.659447
v  -38.793915 59.894741 1.958252
v  -38.122528 61.560143 -7.659447
v  -34.875427 59.990341 -16.756546
v  -34.936554 61.647243 -16.759048
v  -38.073700 59.903141 -7.656960
v  -34.936554 61.647243 -16.759048
v  -29.443359 60.150242 -24.720642
v  -29.492157 61.807144 -24.723053
v  -34.875427 59.990341 -16.756546
v  -29.492157 61.807144 -24.723053
v  -22.131348 60.371941 -31.006248
v  -22.192352 62.028942 -31.008743
v  -29.443359 60.150242 -24.720642
v  -22.192352 62.028942 -31.008743
v  -13.452148 60.640541 -35.185150
v  -13.500946 62.297443 -35.187645
v  -22.131348 60.371941 -31.006248
v  -13.500946 62.297443 -35.187645
v  -3.979462 60.937443 -36.972549
v  -4.028351 62.594444 -36.974945
v  -13.452148 60.640541 -35.185150
v  9.533630 -62.530632 -35.991951
v  -0.122040 -60.836250 -36.719551
v  -0.061066 -62.835243 -36.716454
v  9.472656 -60.531639 -35.994957
v  -0.061066 -62.835243 -36.716454
v  -9.570374 -61.132652 -34.935555
v  -9.509247 -63.131645 -34.932549
v  -0.122040 -60.836250 -36.719551
v  -9.509247 -63.131645 -34.932549
v  -18.249573 -61.400642 -30.764351
v  -18.176239 -63.399635 -30.761353
v  -9.570374 -61.132652 -34.935555
v  -18.176239 -63.399635 -30.761353
v  -25.537170 -61.621941 -24.490555
v  -25.476044 -63.620934 -24.487564
v  -18.249573 -61.400642 -30.764351
v  -25.476044 -63.620934 -24.487564
v  -30.969208 -61.781548 -16.541451
v  -30.895935 -63.780540 -16.538353
v  -25.537170 -61.621941 -24.490555
v  -30.895935 -63.780540 -16.538353
v  -34.143036 -61.868538 -7.458755
v  -34.082001 -63.867546 -7.455765
v  -30.969208 -61.781548 -16.541451
v  -34.082001 -63.867546 -7.455765
v  -34.875427 -61.876945 2.138351
v  -34.814423 -63.875938 2.141342
v  -34.143036 -61.868538 -7.458755
v  -34.814423 -63.875938 2.141342
v  -33.093231 -61.806343 11.596161
v  -33.020050 -63.805351 11.599152
v  -34.875427 -61.876945 2.138351
v  -33.020050 -63.805351 11.599152
v  -28.918457 -61.661339 20.269745
v  -28.857452 -63.660332 20.272858
v  -33.093231 -61.806343 11.596161
v  -28.857452 -63.660332 20.272858
v  -22.656250 -61.451836 27.568344
v  -22.583069 -63.450844 27.571457
v  -28.918457 -61.661339 20.269745
v  -22.583069 -63.450844 27.571457
v  -14.709442 -61.192345 32.994446
v  -14.636261 -63.191338 32.997452
v  -22.656250 -61.451836 27.568344
v  -14.636261 -63.191338 32.997452
v  -5.627441 -60.900230 36.178345
v  -5.566467 -62.899254 36.181442
v  -14.709442 -61.192345 32.994446
v  -5.566467 -62.899254 36.181442
v  3.967255 -60.595650 36.902954
v  4.028351 -62.594643 36.905945
v  -5.627441 -60.900230 36.178345
v  4.028351 -62.594643 36.905945
v  13.415558 -60.299248 35.118942
v  13.476563 -62.298241 35.121948
v  3.967255 -60.595650 36.902954
v  13.476563 -62.298241 35.121948
v  22.082550 -60.031242 30.947845
v  22.155762 -62.030251 30.950836
v  13.415558 -60.299248 35.118942
v  22.155762 -62.030251 30.950836
v  29.382355 -59.809944 24.673950
v  29.443359 -61.808952 24.677048
v  22.082550 -60.031242 30.947845
v  29.443359 -61.808952 24.677048
v  34.802246 -59.650337 16.724854
v  34.875427 -61.649239 16.727844
v  29.382355 -59.809944 24.673950
v  34.875427 -61.649239 16.727844
v  37.988251 -59.563347 7.642242
v  38.049347 -61.562340 7.645340
v  34.802246 -59.650337 16.724854
v  38.049347 -61.562340 7.645340
v  38.708435 -59.554848 -1.954956
v  38.781769 -61.553841 -1.951859
v  37.988251 -59.563347 7.642242
v  38.781769 -61.553841 -1.951859
v  36.926239 -59.625542 -11.412651
v  36.999542 -61.624535 -11.409660
v  38.708435 -59.554848 -1.954956
v  36.999542 -61.624535 -11.409660
v  32.763641 -59.770546 -20.086357
v  32.824738 -61.769554 -20.083366
v  36.926239 -59.625542 -11.412651
v  32.824738 -61.769554 -20.083366
v  26.489258 -59.980034 -27.384956
v  26.550232 -61.978935 -27.381950
v  32.763641 -59.770546 -20.086357
v  26.550232 -61.978935 -27.381950
v  18.542450 -60.239540 -32.811058
v  18.615753 -62.238548 -32.808052
v  26.489258 -59.980034 -27.384956
v  18.615753 -62.238548 -32.808052
v  9.472656 -60.531639 -35.994957
v  9.533630 -62.530632 -35.991951
v  18.542450 -60.239540 -32.811058
v  -9.216370 61.532440 22.628540
v  -9.020966 61.543343 25.970352
v  -8.666962 61.552040 24.274551
v  -12.194855 61.435741 21.118546
v  -13.525360 61.403439 27.447357
v  -12.072754 61.449638 27.750259
v  -11.828644 61.457539 27.802139
v  -10.180634 61.508839 27.261642
v  -10.498047 61.489838 21.473343
v  -14.807159 61.360840 26.292145
v  -15.356445 61.341240 24.646149
v  -15.002441 61.349937 22.950348
v  -13.842743 61.384541 21.659149
v  -13.452148 60.640541 -35.185150
v  5.627441 61.242641 -36.246544
v  -3.979462 60.937443 -36.972549
v  9.838837 61.385441 -29.739449
v  22.680634 61.795242 -27.620354
v  14.721649 61.535244 -33.056847
v  -22.131348 60.371941 -31.006248
v  7.470734 61.311943 -28.964142
v  5.822754 61.262344 -27.112350
v  5.310059 61.249943 -24.680450
v  6.091339 61.278042 -22.319748
v  7.934540 61.339142 -20.663048
v  -29.443359 60.150242 -24.720642
v  -38.073700 59.903141 -7.656960
v  10.363739 61.416740 -20.154251
v  -38.793915 59.894741 1.958252
v  12.731964 61.490242 -20.929459
v  -34.875427 59.990341 -16.756546
v  -37.011749 59.965542 11.433746
v  -12.255859 60.761040 19.558853
v  -9.826660 60.838741 20.067749
v  14.379852 61.539841 -22.781349
v  25.585968 61.965637 24.536148
v  14.892548 61.552341 -25.213348
v  -32.836945 60.110840 20.123749
v  -14.611847 60.687538 20.334259
v  -16.271942 60.637939 22.185944
v  -16.772430 60.625538 24.617950
v  -16.003448 60.653641 26.978546
v  -14.147949 60.714638 28.635147
v  -26.550262 60.320641 27.435944
v  -18.591370 60.580643 32.872360
v  -12.072754 60.780941 29.069656
v  -11.718750 60.792339 29.144043
v  -9.362762 60.865841 28.368744
v  -9.497040 60.873238 36.062149
v  -7.702637 60.915440 26.517044
v  0.109863 61.178436 36.788040
v  -7.202148 60.927841 24.085037
v  -7.971161 60.899742 21.724457
v  9.582550 61.475441 35.000748
v  18.273956 61.743938 30.821747
v  31.018036 62.125538 16.572250
v  34.924347 62.221142 -2.142754
v  14.111359 61.524242 -27.573959
v  33.142029 62.150341 -11.618149
v  28.967255 62.005043 -20.308151
v  12.268036 61.463142 -29.230545
v  34.204041 62.212738 7.472549
v  9.899933 62.060043 -28.289650
v  12.878448 62.156841 -26.779655
v  11.584442 62.114243 -27.934753
v  10.266144 62.081940 -21.606056
v  13.061554 62.167740 -23.437843
v  13.415558 62.176342 -25.133644
v  8.569366 62.027740 -21.960854
v  7.275330 61.985142 -23.116051
v  6.738251 61.965542 -24.762047
v  7.092255 61.974243 -26.457848
v  8.251953 62.008842 -27.748955
v  11.914063 62.133141 -22.146652
v  -12.255859 60.761040 19.558853
v  -9.997559 61.834240 20.363647
v  -9.826660 60.838741 20.067749
v  -12.268036 61.761539 19.887238
v  -9.826660 60.838741 20.067749
v  -8.264160 61.891441 21.914352
v  -7.971161 60.899742 21.724457
v  -9.997559 61.834240 20.363647
v  -7.971161 60.899742 21.724457
v  -7.531738 61.917740 24.123840
v  -7.202148 60.927841 24.085037
v  -8.264160 61.891441 21.914352
v  -7.202148 60.927841 24.085037
v  -8.007874 61.906040 26.400146
v  -7.702637 60.915440 26.517044
v  -7.531738 61.917740 24.123840
v  -7.702637 60.915440 26.517044
v  -9.558167 61.859642 28.133453
v  -9.362762 60.865841 28.368744
v  -8.007874 61.906040 26.400146
v  -9.362762 60.865841 28.368744
v  -11.767548 61.790840 28.859146
v  -11.718750 60.792339 29.144043
v  -9.558167 61.859642 28.133453
v  -12.109344 61.780239 28.789352
v  -11.718750 60.792339 29.144043
v  -11.767548 61.790840 28.859146
v  -12.072754 60.780941 29.069656
v  -14.050262 61.718140 28.382843
v  -14.147949 60.714638 28.635147
v  -14.147949 60.714638 28.635147
v  -15.783661 61.661041 26.832153
v  -16.003448 60.653641 26.978546
v  -14.050262 61.718140 28.382843
v  -16.003448 60.653641 26.978546
v  -16.503967 61.634739 24.622650
v  -16.772430 60.625538 24.617950
v  -15.783661 61.661041 26.832153
v  -16.772430 60.625538 24.617950
v  -16.027863 61.646339 22.346359
v  -16.271942 60.637939 22.185944
v  -16.503967 61.634739 24.622650
v  -16.271942 60.637939 22.185944
v  -14.477539 61.692741 20.613052
v  -14.611847 60.687538 20.334259
v  -16.027863 61.646339 22.346359
v  -14.611847 60.687538 20.334259
v  -12.268036 61.761539 19.887238
v  -12.255859 60.761040 19.558853
v  -14.477539 61.692741 20.613052
v  9.838837 61.385441 -29.739449
v  12.097137 62.458641 -28.957947
v  12.268036 61.463142 -29.230545
v  9.814453 62.385941 -29.434250
v  12.268036 61.463142 -29.230545
v  13.830536 62.515842 -27.407257
v  14.111359 61.524242 -27.573959
v  12.097137 62.458641 -28.957947
v  14.111359 61.524242 -27.573959
v  14.550751 62.542141 -25.197746
v  14.892548 61.552341 -25.213348
v  13.830536 62.515842 -27.407257
v  14.892548 61.552341 -25.213348
v  14.074738 62.530441 -22.921349
v  14.379852 61.539841 -22.781349
v  14.550751 62.542141 -25.197746
v  14.379852 61.539841 -22.781349
v  12.524445 62.484043 -21.188156
v  12.731964 61.490242 -20.929459
v  14.074738 62.530441 -22.921349
v  12.731964 61.490242 -20.929459
v  10.314941 62.415241 -20.462456
v  10.363739 61.416740 -20.154251
v  12.524445 62.484043 -21.188156
v  10.363739 61.416740 -20.154251
v  8.044464 62.342545 -20.938751
v  7.934540 61.339142 -20.663048
v  10.314941 62.415241 -20.462456
v  7.934540 61.339142 -20.663048
v  6.311066 62.285442 -22.489250
v  6.091339 61.278042 -22.319748
v  8.044464 62.342545 -20.938751
v  6.091339 61.278042 -22.319748
v  5.590851 62.259140 -24.698952
v  5.310059 61.249943 -24.680450
v  6.311066 62.285442 -22.489250
v  5.310059 61.249943 -24.680450
v  6.066833 62.270744 -26.975250
v  5.822754 61.262344 -27.112350
v  5.590851 62.259140 -24.698952
v  5.822754 61.262344 -27.112350
v  7.617126 62.317242 -28.708542
v  7.470734 61.311943 -28.964142
v  6.066833 62.270744 -26.975250
v  7.470734 61.311943 -28.964142
v  9.814453 62.385941 -29.434250
v  9.838837 61.385441 -29.739449
v  7.617126 62.317242 -28.708542
v  -12.231445 61.764141 20.709045
v  -10.498047 61.489838 21.473343
v  -10.339355 61.824440 21.104248
v  -12.194855 61.435741 21.118546
v  -10.339355 61.824440 21.104248
v  -9.216370 61.532440 22.628540
v  -8.898956 61.871841 22.390854
v  -10.498047 61.489838 21.473343
v  -8.898956 61.871841 22.390854
v  -8.666962 61.552040 24.274551
v  -8.300751 61.893639 24.224152
v  -9.216370 61.532440 22.628540
v  -8.300751 61.893639 24.224152
v  -9.020966 61.543343 25.970352
v  -8.691467 61.884041 26.112946
v  -8.666962 61.552040 24.274551
v  -8.691467 61.884041 26.112946
v  -10.180634 61.508839 27.261642
v  -9.985352 61.845539 27.550949
v  -9.020966 61.543343 25.970352
v  -9.985352 61.845539 27.550949
v  -11.828644 61.457539 27.802139
v  -11.816467 61.788437 28.153046
v  -10.180634 61.508839 27.261642
v  -12.072754 61.449638 27.750259
v  -11.816467 61.788437 28.153046
v  -11.828644 61.457539 27.802139
v  -12.084930 61.779640 28.095245
v  -13.525360 61.403439 27.447357
v  -13.696259 61.728142 27.757843
v  -13.696259 61.728142 27.757843
v  -14.807159 61.360840 26.292145
v  -15.136749 61.680641 26.471344
v  -13.525360 61.403439 27.447357
v  -15.136749 61.680641 26.471344
v  -15.356445 61.341240 24.646149
v  -15.747040 61.658840 24.637955
v  -14.807159 61.360840 26.292145
v  -15.747040 61.658840 24.637955
v  -15.002441 61.349937 22.950348
v  -15.344238 61.668541 22.749237
v  -15.356445 61.341240 24.646149
v  -15.344238 61.668541 22.749237
v  -13.842743 61.384541 21.659149
v  -14.062561 61.707039 21.311157
v  -15.002441 61.349937 22.950348
v  -14.062561 61.707039 21.311157
v  -12.194855 61.435741 21.118546
v  -12.231445 61.764141 20.709045
v  -13.842743 61.384541 21.659149
v  9.863251 62.388443 -28.670250
v  11.584442 62.114243 -27.934753
v  11.755341 62.448841 -28.275154
v  9.899933 62.060043 -28.289650
v  11.755341 62.448841 -28.275154
v  12.878448 62.156841 -26.779655
v  13.183533 62.496243 -26.988449
v  11.584442 62.114243 -27.934753
v  13.183533 62.496243 -26.988449
v  13.415558 62.176342 -25.133644
v  13.793945 62.518044 -25.155251
v  12.878448 62.156841 -26.779655
v  13.793945 62.518044 -25.155251
v  13.061554 62.167740 -23.437843
v  13.391144 62.508343 -23.266556
v  13.415558 62.176342 -25.133644
v  13.391144 62.508343 -23.266556
v  11.914063 62.133141 -22.146652
v  12.109344 62.469841 -21.828453
v  13.061554 62.167740 -23.437843
v  12.109344 62.469841 -21.828453
v  10.266144 62.081940 -21.606056
v  10.278351 62.412743 -21.226250
v  11.914063 62.133141 -22.146652
v  10.278351 62.412743 -21.226250
v  8.569366 62.027740 -21.960854
v  8.386261 62.352440 -21.621452
v  10.266144 62.081940 -21.606056
v  8.386261 62.352440 -21.621452
v  7.275330 61.985142 -23.116051
v  6.945740 62.305042 -22.908150
v  8.569366 62.027740 -21.960854
v  6.945740 62.305042 -22.908150
v  6.738251 61.965542 -24.762047
v  6.347656 62.283241 -24.741447
v  7.275330 61.985142 -23.116051
v  6.347656 62.283241 -24.741447
v  7.092255 61.974243 -26.457848
v  6.738251 62.292843 -26.630058
v  6.738251 61.965542 -24.762047
v  6.738251 62.292843 -26.630058
v  8.251953 62.008842 -27.748955
v  8.032257 62.331444 -28.068153
v  7.092255 61.974243 -26.457848
v  8.032257 62.331444 -28.068153
v  9.899933 62.060043 -28.289650
v  9.863251 62.388443 -28.670250
v  8.251953 62.008842 -27.748955
v  -22.607452 62.014641 -31.653946
v  -13.500946 62.297443 -35.187645
v  -13.745148 62.288742 -35.920044
v  -22.192352 62.028942 -31.008743
v  -30.065948 61.788242 -25.237152
v  -29.492157 61.807144 -24.723053
v  -35.620148 61.625042 -17.106949
v  -34.936554 61.647243 -16.759048
v  -38.879333 61.536041 -7.817352
v  -38.122528 61.560143 -7.659447
v  -39.611847 61.527439 1.998550
v  -38.842712 61.551643 1.955750
v  -37.792938 61.599739 11.671738
v  -37.060516 61.622543 11.431259
v  -33.532745 61.748039 20.543152
v  -32.885712 61.767738 20.121246
v  -27.111847 61.962242 28.008057
v  -26.599152 61.977638 27.433548
v  -18.994141 62.227741 33.557846
v  -18.640137 62.237640 32.869858
v  -9.704559 62.526340 36.814148
v  -9.545959 62.530239 36.059647
v  0.109863 62.837936 37.555252
v  0.061066 62.835438 36.785553
v  9.777863 63.141037 35.730652
v  9.533630 63.132339 34.998245
v  18.640167 63.415237 31.464554
v  18.225037 63.400841 30.819244
v  26.098663 63.641541 25.047653
v  25.524933 63.622639 24.533646
v  31.652863 63.804840 16.917450
v  30.957062 63.782539 16.569748
v  34.899933 63.893742 7.627838
v  34.155243 63.869640 7.469955
v  35.644562 63.902439 -2.188049
v  34.875427 63.878139 -2.145149
v  33.825653 63.830139 -11.861252
v  33.093262 63.807343 -11.620651
v  29.565460 63.681839 -20.732544
v  28.918457 63.662041 -20.310654
v  23.144562 63.467640 -28.197456
v  22.631866 63.452240 -27.622948
v  15.026855 63.202141 -33.747246
v  14.672852 63.192142 -33.059250
v  5.737335 62.903442 -37.003647
v  5.578644 62.899544 -36.249039
v  -4.077148 62.591942 -37.744743
v  -4.028351 62.594444 -36.974945
v  27.111847 -61.962242 -28.007957
v  18.615753 -62.238548 -32.808052
v  18.994141 -62.227745 -33.557755
v  26.550232 -61.978935 -27.381950
v  33.532745 -61.748039 -20.543060
v  32.824738 -61.769554 -20.083366
v  37.792938 -61.599739 -11.671753
v  36.999542 -61.624535 -11.409660
v  39.611847 -61.527443 -1.998566
v  38.781769 -61.553841 -1.951859
v  38.879333 -61.536034 7.817352
v  38.049347 -61.562340 7.645340
v  35.620148 -61.625038 17.106949
v  34.875427 -61.649239 16.727844
v  30.065948 -61.788246 25.237152
v  29.443359 -61.808952 24.677048
v  22.607452 -62.014641 31.653946
v  22.155762 -62.030251 30.950836
v  13.745148 -62.288734 35.920044
v  13.476563 -62.298241 35.121948
v  4.077148 -62.591942 37.744751
v  4.028351 -62.594643 36.905945
v  -5.737366 -62.903450 37.003647
v  -5.566467 -62.899254 36.181442
v  -15.026855 -63.202141 33.747238
v  -14.636261 -63.191338 32.997452
v  -23.144562 -63.467644 28.197556
v  -22.583069 -63.450844 27.571457
v  -29.565460 -63.681847 20.732544
v  -28.857452 -63.660332 20.272858
v  -33.825623 -63.830147 11.861252
v  -33.020050 -63.805351 11.599152
v  -35.644501 -63.902443 2.188049
v  -34.814423 -63.875938 2.141342
v  -34.899933 -63.893852 -7.627853
v  -34.082001 -63.867546 -7.455765
v  -31.652802 -63.804848 -16.917465
v  -30.895935 -63.780540 -16.538353
v  -26.098663 -63.641640 -25.047653
v  -25.476044 -63.620934 -24.487564
v  -18.640137 -63.415245 -31.464554
v  -18.176239 -63.399635 -30.761353
v  -9.777863 -63.141151 -35.730553
v  -9.509247 -63.131645 -34.932549
v  -0.109833 -62.837944 -37.555252
v  -0.061066 -62.835243 -36.716454
v  9.704529 -62.526451 -36.814148
v  9.533630 -62.530632 -35.991951
v  -16.027863 61.646339 22.346359
v  -14.062561 61.707039 21.311157
v  -14.477539 61.692741 20.613052
v  -15.344238 61.668541 22.749237
v  -16.503967 61.634739 24.622650
v  -15.747040 61.658840 24.637955
v  -15.783661 61.661041 26.832153
v  -15.136749 61.680641 26.471344
v  -14.050262 61.718140 28.382843
v  -13.696259 61.728142 27.757843
v  -12.109344 61.780239 28.789352
v  -12.084930 61.779640 28.095245
v  -11.767548 61.790840 28.859146
v  -11.816467 61.788437 28.153046
v  -9.558167 61.859642 28.133453
v  -9.985352 61.845539 27.550949
v  -8.007874 61.906040 26.400146
v  -8.691467 61.884041 26.112946
v  -7.531738 61.917740 24.123840
v  -8.300751 61.893639 24.224152
v  -8.264160 61.891441 21.914352
v  -8.898956 61.871841 22.390854
v  -9.997559 61.834240 20.363647
v  -10.339355 61.824440 21.104248
v  -12.268036 61.761539 19.887238
v  -12.231445 61.764141 20.709045
v  6.066833 62.270744 -26.975250
v  8.032257 62.331444 -28.068153
v  7.617126 62.317242 -28.708542
v  6.738251 62.292843 -26.630058
v  5.590851 62.259140 -24.698952
v  6.347656 62.283241 -24.741447
v  6.311066 62.285442 -22.489250
v  6.945740 62.305042 -22.908150
v  8.044464 62.342545 -20.938751
v  8.386261 62.352440 -21.621452
v  10.314941 62.415241 -20.462456
v  10.278351 62.412743 -21.226250
v  12.524445 62.484043 -21.188156
v  12.109344 62.469841 -21.828453
v  14.074738 62.530441 -22.921349
v  13.391144 62.508343 -23.266556
v  14.550751 62.542141 -25.197746
v  13.793945 62.518044 -25.155251
v  13.830536 62.515842 -27.407257
v  13.183533 62.496243 -26.988449
v  12.097137 62.458641 -28.957947
v  11.755341 62.448841 -28.275154
v  9.814453 62.385941 -29.434250
v  9.863251 62.388443 -28.670250
# 982 vertices

vt 0.665320 -0.996518 0.000000
vt 0.693848 -0.882351 0.000000
vt 0.693848 -0.996518 0.000000
vt 0.665321 -0.882351 0.000000
vt 0.636793 -0.996518 0.000000
vt 0.636793 -0.882351 0.000000
vt 0.608266 -0.996518 0.000000
vt 0.608266 -0.882351 0.000000
vt 0.579739 -0.996518 0.000000
vt 0.579739 -0.882351 0.000000
vt 0.551212 -0.996518 0.000000
vt 0.551212 -0.882351 0.000000
vt 0.522685 -0.996518 0.000000
vt 0.522685 -0.882351 0.000000
vt 0.494158 -0.996518 0.000000
vt 0.494158 -0.882351 0.000000
vt 0.465631 -0.996518 0.000000
vt 0.465631 -0.882351 0.000000
vt 0.437104 -0.996518 0.000000
vt 0.437104 -0.882351 0.000000
vt 0.408577 -0.996518 0.000000
vt 0.408577 -0.882351 0.000000
vt 0.380050 -0.996518 0.000000
vt 0.380050 -0.882351 0.000000
vt 0.351522 -0.996518 0.000000
vt 0.351522 -0.882351 0.000000
vt 0.322995 -0.996518 0.000000
vt 0.322995 -0.882351 0.000000
vt 0.294468 -0.996518 0.000000
vt 0.294468 -0.882351 0.000000
vt 0.265941 -0.996518 0.000000
vt 0.265941 -0.882351 0.000000
vt 0.237414 -0.996518 0.000000
vt 0.237414 -0.882351 0.000000
vt 0.208887 -0.996518 0.000000
vt 0.208887 -0.882351 0.000000
vt 0.180360 -0.996518 0.000000
vt 0.180360 -0.882351 0.000000
vt 0.151833 -0.996518 0.000000
vt 0.151833 -0.882351 0.000000
vt 0.123306 -0.996518 0.000000
vt 0.123306 -0.882351 0.000000
vt 0.094779 -0.996518 0.000000
vt 0.094779 -0.882351 0.000000
vt 0.066252 -0.996518 0.000000
vt 0.066252 -0.882351 0.000000
vt 0.037725 -0.996518 0.000000
vt 0.037725 -0.882351 0.000000
vt 0.009197 -0.996518 0.000000
vt 0.009197 -0.882351 0.000000
vt 0.665320 -0.851542 0.000000
vt 0.693848 -0.757296 0.000000
vt 0.693848 -0.851542 0.000000
vt 0.665320 -0.757296 0.000000
vt 0.636793 -0.851542 0.000000
vt 0.636793 -0.757296 0.000000
vt 0.608266 -0.851542 0.000000
vt 0.608266 -0.757296 0.000000
vt 0.579739 -0.851542 0.000000
vt 0.579739 -0.757296 0.000000
vt 0.551212 -0.851542 0.000000
vt 0.551212 -0.757296 0.000000
vt 0.522685 -0.851542 0.000000
vt 0.522685 -0.757296 0.000000
vt 0.494158 -0.851542 0.000000
vt 0.494158 -0.757296 0.000000
vt 0.465631 -0.851542 0.000000
vt 0.465631 -0.757296 0.000000
vt 0.437104 -0.851542 0.000000
vt 0.437104 -0.757296 0.000000
vt 0.408577 -0.851542 0.000000
vt 0.408577 -0.757296 0.000000
vt 0.380050 -0.851542 0.000000
vt 0.380050 -0.757296 0.000000
vt 0.351522 -0.851542 0.000000
vt 0.351522 -0.757296 0.000000
vt 0.322995 -0.851542 0.000000
vt 0.322995 -0.757296 0.000000
vt 0.294468 -0.851542 0.000000
vt 0.294468 -0.757296 0.000000
vt 0.265941 -0.851542 0.000000
vt 0.265941 -0.757296 0.000000
vt 0.237414 -0.851542 0.000000
vt 0.237414 -0.757296 0.000000
vt 0.208887 -0.851542 0.000000
vt 0.208887 -0.757296 0.000000
vt 0.180360 -0.851542 0.000000
vt 0.180360 -0.757296 0.000000
vt 0.151833 -0.851542 0.000000
vt 0.151833 -0.757296 0.000000
vt 0.123306 -0.851542 0.000000
vt 0.123306 -0.757296 0.000000
vt 0.094779 -0.851542 0.000000
vt 0.094779 -0.757296 0.000000
vt 0.066252 -0.851542 0.000000
vt 0.066252 -0.757296 0.000000
vt 0.037725 -0.851542 0.000000
vt 0.037725 -0.757296 0.000000
vt 0.009197 -0.851542 0.000000
vt 0.009197 -0.757296 0.000000
vt 0.665320 -0.727096 0.000000
vt 0.693848 -0.614495 0.000000
vt 0.693848 -0.727096 0.000000
vt 0.665320 -0.614495 0.000000
vt 0.636793 -0.727096 0.000000
vt 0.636793 -0.614495 0.000000
vt 0.608266 -0.727096 0.000000
vt 0.608266 -0.614495 0.000000
vt 0.579739 -0.727096 0.000000
vt 0.579739 -0.614495 0.000000
vt 0.551212 -0.727096 0.000000
vt 0.551212 -0.614495 0.000000
vt 0.522685 -0.727096 0.000000
vt 0.522685 -0.614495 0.000000
vt 0.494158 -0.727096 0.000000
vt 0.494158 -0.614495 0.000000
vt 0.465631 -0.727096 0.000000
vt 0.465631 -0.614495 0.000000
vt 0.437104 -0.727096 0.000000
vt 0.437104 -0.614495 0.000000
vt 0.408577 -0.727096 0.000000
vt 0.408577 -0.614495 0.000000
vt 0.380050 -0.727096 0.000000
vt 0.380050 -0.614495 0.000000
vt 0.351522 -0.727096 0.000000
vt 0.351522 -0.614495 0.000000
vt 0.322995 -0.727096 0.000000
vt 0.322995 -0.614495 0.000000
vt 0.294468 -0.727096 0.000000
vt 0.294468 -0.614495 0.000000
vt 0.265941 -0.727096 0.000000
vt 0.265941 -0.614495 0.000000
vt 0.237414 -0.727096 0.000000
vt 0.237414 -0.614495 0.000000
vt 0.208887 -0.727096 0.000000
vt 0.208887 -0.614495 0.000000
vt 0.180360 -0.727096 0.000000
vt 0.180360 -0.614495 0.000000
vt 0.151833 -0.727096 0.000000
vt 0.151833 -0.614495 0.000000
vt 0.123306 -0.727096 0.000000
vt 0.123306 -0.614495 0.000000
vt 0.094779 -0.727096 0.000000
vt 0.094779 -0.614495 0.000000
vt 0.066252 -0.727096 0.000000
vt 0.066252 -0.614495 0.000000
vt 0.037725 -0.727096 0.000000
vt 0.037725 -0.614495 0.000000
vt 0.009197 -0.727096 0.000000
vt 0.009197 -0.614495 0.000000
vt 0.021812 -0.442528 0.000000
vt 0.062515 -0.401824 0.000000
vt 0.039484 -0.419496 0.000000
vt 0.006913 -0.498129 0.000000
vt 0.062515 -0.594435 0.000000
vt 0.229321 -0.498129 0.000000
vt 0.173719 -0.401824 0.000000
vt 0.118117 -0.386926 0.000000
vt 0.089335 -0.390715 0.000000
vt 0.010702 -0.469348 0.000000
vt 0.146899 -0.390715 0.000000
vt 0.021812 -0.553731 0.000000
vt 0.039484 -0.576762 0.000000
vt 0.010702 -0.526911 0.000000
vt 0.118117 -0.609333 0.000000
vt 0.089335 -0.605544 0.000000
vt 0.173719 -0.594435 0.000000
vt 0.214422 -0.553731 0.000000
vt 0.225532 -0.526911 0.000000
vt 0.146899 -0.605544 0.000000
vt 0.196750 -0.576762 0.000000
vt 0.214422 -0.442528 0.000000
vt 0.225532 -0.469348 0.000000
vt 0.196750 -0.419497 0.000000
vt 0.665321 -0.882351 0.000000
vt 0.693848 -0.871900 0.000000
vt 0.693848 -0.882351 0.000000
vt 0.665321 -0.871900 0.000000
vt 0.693848 -0.861993 0.000000
vt 0.665320 -0.861993 0.000000
vt 0.693848 -0.851542 0.000000
vt 0.665320 -0.851542 0.000000
vt 0.636793 -0.882351 0.000000
vt 0.636793 -0.871900 0.000000
vt 0.636793 -0.861993 0.000000
vt 0.636793 -0.851542 0.000000
vt 0.608266 -0.861993 0.000000
vt 0.608266 -0.851542 0.000000
vt 0.608266 -0.882351 0.000000
vt 0.608266 -0.871900 0.000000
vt 0.579739 -0.871900 0.000000
vt 0.579739 -0.861993 0.000000
vt 0.579739 -0.851542 0.000000
vt 0.551212 -0.861993 0.000000
vt 0.551212 -0.851542 0.000000
vt 0.579739 -0.882351 0.000000
vt 0.551212 -0.882351 0.000000
vt 0.551212 -0.871900 0.000000
vt 0.522685 -0.871900 0.000000
vt 0.522685 -0.861993 0.000000
vt 0.522685 -0.851542 0.000000
vt 0.494158 -0.861993 0.000000
vt 0.494158 -0.851542 0.000000
vt 0.522685 -0.882351 0.000000
vt 0.494158 -0.882351 0.000000
vt 0.494158 -0.871900 0.000000
vt 0.465631 -0.871900 0.000000
vt 0.465631 -0.861993 0.000000
vt 0.465631 -0.851542 0.000000
vt 0.437104 -0.861993 0.000000
vt 0.437104 -0.851542 0.000000
vt 0.465631 -0.882351 0.000000
vt 0.437104 -0.882351 0.000000
vt 0.437104 -0.871900 0.000000
vt 0.408577 -0.871900 0.000000
vt 0.408577 -0.861993 0.000000
vt 0.408577 -0.851542 0.000000
vt 0.380050 -0.861993 0.000000
vt 0.380050 -0.851542 0.000000
vt 0.408577 -0.882351 0.000000
vt 0.380050 -0.882351 0.000000
vt 0.380050 -0.871900 0.000000
vt 0.351522 -0.871900 0.000000
vt 0.351522 -0.861993 0.000000
vt 0.351522 -0.851542 0.000000
vt 0.322995 -0.861993 0.000000
vt 0.322995 -0.851542 0.000000
vt 0.351522 -0.882351 0.000000
vt 0.322995 -0.882351 0.000000
vt 0.322995 -0.871900 0.000000
vt 0.294468 -0.871900 0.000000
vt 0.294468 -0.861993 0.000000
vt 0.294468 -0.851542 0.000000
vt 0.265941 -0.861993 0.000000
vt 0.265941 -0.851542 0.000000
vt 0.294468 -0.882351 0.000000
vt 0.265941 -0.882351 0.000000
vt 0.265941 -0.871900 0.000000
vt 0.237414 -0.871900 0.000000
vt 0.237414 -0.861993 0.000000
vt 0.237414 -0.851542 0.000000
vt 0.208887 -0.861993 0.000000
vt 0.208887 -0.851542 0.000000
vt 0.237414 -0.882351 0.000000
vt 0.208887 -0.882351 0.000000
vt 0.208887 -0.871900 0.000000
vt 0.180360 -0.871900 0.000000
vt 0.180360 -0.861993 0.000000
vt 0.180360 -0.851542 0.000000
vt 0.151833 -0.861993 0.000000
vt 0.151833 -0.851542 0.000000
vt 0.180360 -0.882351 0.000000
vt 0.151833 -0.882351 0.000000
vt 0.151833 -0.871900 0.000000
vt 0.123306 -0.871900 0.000000
vt 0.123306 -0.861993 0.000000
vt 0.123306 -0.851542 0.000000
vt 0.094779 -0.861993 0.000000
vt 0.094779 -0.851542 0.000000
vt 0.123306 -0.882351 0.000000
vt 0.094779 -0.882351 0.000000
vt 0.094779 -0.871900 0.000000
vt 0.066252 -0.871900 0.000000
vt 0.066252 -0.861993 0.000000
vt 0.066252 -0.851542 0.000000
vt 0.037725 -0.861993 0.000000
vt 0.037725 -0.851542 0.000000
vt 0.066252 -0.882351 0.000000
vt 0.037725 -0.882351 0.000000
vt 0.037725 -0.871900 0.000000
vt 0.009197 -0.871900 0.000000
vt 0.009197 -0.861993 0.000000
vt 0.009197 -0.851542 0.000000
vt 0.009197 -0.882351 0.000000
vt 0.665320 -0.757296 0.000000
vt 0.693848 -0.747099 0.000000
vt 0.693848 -0.757296 0.000000
vt 0.665320 -0.747099 0.000000
vt 0.693848 -0.737294 0.000000
vt 0.665320 -0.737294 0.000000
vt 0.693848 -0.727096 0.000000
vt 0.665320 -0.727096 0.000000
vt 0.636793 -0.757296 0.000000
vt 0.636793 -0.747099 0.000000
vt 0.636793 -0.737294 0.000000
vt 0.636793 -0.727096 0.000000
vt 0.608266 -0.737294 0.000000
vt 0.608266 -0.727096 0.000000
vt 0.608266 -0.757296 0.000000
vt 0.608266 -0.747099 0.000000
vt 0.579739 -0.747099 0.000000
vt 0.579739 -0.737294 0.000000
vt 0.579739 -0.727096 0.000000
vt 0.551212 -0.737294 0.000000
vt 0.551212 -0.727096 0.000000
vt 0.579739 -0.757296 0.000000
vt 0.551212 -0.757296 0.000000
vt 0.551212 -0.747099 0.000000
vt 0.522685 -0.747099 0.000000
vt 0.522685 -0.737294 0.000000
vt 0.522685 -0.727096 0.000000
vt 0.494158 -0.737294 0.000000
vt 0.494158 -0.727096 0.000000
vt 0.522685 -0.757296 0.000000
vt 0.494158 -0.757296 0.000000
vt 0.494158 -0.747099 0.000000
vt 0.465631 -0.747099 0.000000
vt 0.465631 -0.737294 0.000000
vt 0.465631 -0.727096 0.000000
vt 0.437104 -0.737294 0.000000
vt 0.437104 -0.727096 0.000000
vt 0.465631 -0.757296 0.000000
vt 0.437104 -0.757296 0.000000
vt 0.437104 -0.747099 0.000000
vt 0.408577 -0.747099 0.000000
vt 0.408577 -0.737294 0.000000
vt 0.408577 -0.727096 0.000000
vt 0.380050 -0.737294 0.000000
vt 0.380050 -0.727096 0.000000
vt 0.408577 -0.757296 0.000000
vt 0.380050 -0.757296 0.000000
vt 0.380050 -0.747099 0.000000
vt 0.351522 -0.747099 0.000000
vt 0.351522 -0.737294 0.000000
vt 0.351522 -0.727096 0.000000
vt 0.322995 -0.737294 0.000000
vt 0.322995 -0.727096 0.000000
vt 0.351522 -0.757296 0.000000
vt 0.322995 -0.757296 0.000000
vt 0.322995 -0.747099 0.000000
vt 0.294468 -0.747099 0.000000
vt 0.294468 -0.737294 0.000000
vt 0.294468 -0.727096 0.000000
vt 0.265941 -0.737294 0.000000
vt 0.265941 -0.727096 0.000000
vt 0.294468 -0.757296 0.000000
vt 0.265941 -0.757296 0.000000
vt 0.265941 -0.747099 0.000000
vt 0.237414 -0.747099 0.000000
vt 0.237414 -0.737294 0.000000
vt 0.237414 -0.727096 0.000000
vt 0.208887 -0.737294 0.000000
vt 0.208887 -0.727096 0.000000
vt 0.237414 -0.757296 0.000000
vt 0.208887 -0.757296 0.000000
vt 0.208887 -0.747099 0.000000
vt 0.180360 -0.747099 0.000000
vt 0.180360 -0.737294 0.000000
vt 0.180360 -0.727096 0.000000
vt 0.151833 -0.737294 0.000000
vt 0.151833 -0.727096 0.000000
vt 0.180360 -0.757296 0.000000
vt 0.151833 -0.757296 0.000000
vt 0.151833 -0.747099 0.000000
vt 0.123306 -0.747099 0.000000
vt 0.123306 -0.737294 0.000000
vt 0.123306 -0.727096 0.000000
vt 0.094779 -0.737294 0.000000
vt 0.094779 -0.727096 0.000000
vt 0.123306 -0.757296 0.000000
vt 0.094779 -0.757296 0.000000
vt 0.094779 -0.747099 0.000000
vt 0.066252 -0.747099 0.000000
vt 0.066252 -0.737294 0.000000
vt 0.066252 -0.727096 0.000000
vt 0.037725 -0.737294 0.000000
vt 0.037725 -0.727096 0.000000
vt 0.066252 -0.757296 0.000000
vt 0.037725 -0.757296 0.000000
vt 0.037725 -0.747099 0.000000
vt 0.009197 -0.747099 0.000000
vt 0.009197 -0.737294 0.000000
vt 0.009197 -0.727096 0.000000
vt 0.009197 -0.757296 0.000000
vt 0.454840 -0.500504 0.000000
vt 0.446114 -0.473642 0.000000
vt 0.451127 -0.472299 0.000000
vt 0.449651 -0.500504 0.000000
vt 0.451127 -0.472299 0.000000
vt 0.435746 -0.448612 0.000000
vt 0.440240 -0.446017 0.000000
vt 0.446114 -0.473642 0.000000
vt 0.440240 -0.446017 0.000000
vt 0.419253 -0.427117 0.000000
vt 0.422922 -0.423448 0.000000
vt 0.435746 -0.448612 0.000000
vt 0.422922 -0.423448 0.000000
vt 0.397759 -0.410624 0.000000
vt 0.400353 -0.406130 0.000000
vt 0.419253 -0.427117 0.000000
vt 0.400353 -0.406130 0.000000
vt 0.372728 -0.400256 0.000000
vt 0.374071 -0.395244 0.000000
vt 0.397759 -0.410624 0.000000
vt 0.374071 -0.395244 0.000000
vt 0.345867 -0.396720 0.000000
vt 0.345867 -0.391531 0.000000
vt 0.372728 -0.400256 0.000000
vt 0.345867 -0.391531 0.000000
vt 0.319006 -0.400256 0.000000
vt 0.317663 -0.395244 0.000000
vt 0.345867 -0.396720 0.000000
vt 0.317663 -0.395244 0.000000
vt 0.293975 -0.410624 0.000000
vt 0.291380 -0.406130 0.000000
vt 0.319006 -0.400256 0.000000
vt 0.291380 -0.406130 0.000000
vt 0.272481 -0.427117 0.000000
vt 0.268811 -0.423448 0.000000
vt 0.293975 -0.410624 0.000000
vt 0.268811 -0.423448 0.000000
vt 0.255987 -0.448612 0.000000
vt 0.251494 -0.446017 0.000000
vt 0.272481 -0.427117 0.000000
vt 0.251494 -0.446017 0.000000
vt 0.245619 -0.473642 0.000000
vt 0.240607 -0.472299 0.000000
vt 0.255987 -0.448612 0.000000
vt 0.240607 -0.472299 0.000000
vt 0.242083 -0.500504 0.000000
vt 0.236894 -0.500504 0.000000
vt 0.245619 -0.473642 0.000000
vt 0.236894 -0.500504 0.000000
vt 0.245619 -0.527365 0.000000
vt 0.240607 -0.528708 0.000000
vt 0.242083 -0.500504 0.000000
vt 0.240607 -0.528708 0.000000
vt 0.255987 -0.552395 0.000000
vt 0.251493 -0.554990 0.000000
vt 0.245619 -0.527365 0.000000
vt 0.251493 -0.554990 0.000000
vt 0.272481 -0.573890 0.000000
vt 0.268811 -0.577559 0.000000
vt 0.255987 -0.552395 0.000000
vt 0.268811 -0.577559 0.000000
vt 0.293975 -0.590383 0.000000
vt 0.291380 -0.594877 0.000000
vt 0.272481 -0.573890 0.000000
vt 0.291380 -0.594877 0.000000
vt 0.319006 -0.600751 0.000000
vt 0.317663 -0.605763 0.000000
vt 0.293975 -0.590383 0.000000
vt 0.317663 -0.605763 0.000000
vt 0.345867 -0.604287 0.000000
vt 0.345867 -0.609477 0.000000
vt 0.319006 -0.600751 0.000000
vt 0.345867 -0.609477 0.000000
vt 0.372728 -0.600751 0.000000
vt 0.374071 -0.605763 0.000000
vt 0.345867 -0.604287 0.000000
vt 0.374071 -0.605763 0.000000
vt 0.397759 -0.590383 0.000000
vt 0.400353 -0.594877 0.000000
vt 0.372728 -0.600751 0.000000
vt 0.400353 -0.594877 0.000000
vt 0.419253 -0.573890 0.000000
vt 0.422922 -0.577559 0.000000
vt 0.397759 -0.590383 0.000000
vt 0.422922 -0.577559 0.000000
vt 0.435746 -0.552396 0.000000
vt 0.440240 -0.554990 0.000000
vt 0.419253 -0.573890 0.000000
vt 0.440240 -0.554990 0.000000
vt 0.446114 -0.527365 0.000000
vt 0.451127 -0.528708 0.000000
vt 0.435746 -0.552396 0.000000
vt 0.451127 -0.528708 0.000000
vt 0.449651 -0.500504 0.000000
vt 0.454840 -0.500504 0.000000
vt 0.446114 -0.527365 0.000000
vt 0.218504 -0.471231 0.000000
vt 0.229321 -0.498129 0.000000
vt 0.222046 -0.498129 0.000000
vt 0.225532 -0.469348 0.000000
vt 0.222046 -0.498129 0.000000
vt 0.225532 -0.526911 0.000000
vt 0.218504 -0.525028 0.000000
vt 0.229321 -0.498129 0.000000
vt 0.218504 -0.525028 0.000000
vt 0.214422 -0.553731 0.000000
vt 0.208122 -0.550094 0.000000
vt 0.225532 -0.526911 0.000000
vt 0.208122 -0.550094 0.000000
vt 0.196750 -0.576762 0.000000
vt 0.191606 -0.571618 0.000000
vt 0.214422 -0.553731 0.000000
vt 0.191606 -0.571618 0.000000
vt 0.173719 -0.594435 0.000000
vt 0.170081 -0.588134 0.000000
vt 0.196750 -0.576762 0.000000
vt 0.170081 -0.588134 0.000000
vt 0.146899 -0.605544 0.000000
vt 0.145016 -0.598517 0.000000
vt 0.173719 -0.594435 0.000000
vt 0.145016 -0.598517 0.000000
vt 0.118117 -0.609333 0.000000
vt 0.118117 -0.602058 0.000000
vt 0.146899 -0.605544 0.000000
vt 0.118117 -0.602058 0.000000
vt 0.089335 -0.605544 0.000000
vt 0.091218 -0.598517 0.000000
vt 0.118117 -0.609333 0.000000
vt 0.091218 -0.598517 0.000000
vt 0.062515 -0.594435 0.000000
vt 0.066153 -0.588134 0.000000
vt 0.089335 -0.605544 0.000000
vt 0.066153 -0.588134 0.000000
vt 0.039484 -0.576762 0.000000
vt 0.044628 -0.571618 0.000000
vt 0.062515 -0.594435 0.000000
vt 0.044628 -0.571618 0.000000
vt 0.021812 -0.553731 0.000000
vt 0.028112 -0.550094 0.000000
vt 0.039484 -0.576762 0.000000
vt 0.028112 -0.550094 0.000000
vt 0.010702 -0.526911 0.000000
vt 0.017730 -0.525028 0.000000
vt 0.021812 -0.553731 0.000000
vt 0.017730 -0.525028 0.000000
vt 0.006913 -0.498129 0.000000
vt 0.014188 -0.498129 0.000000
vt 0.010702 -0.526911 0.000000
vt 0.014188 -0.498129 0.000000
vt 0.010702 -0.469348 0.000000
vt 0.017730 -0.471231 0.000000
vt 0.006913 -0.498129 0.000000
vt 0.017730 -0.471231 0.000000
vt 0.021812 -0.442528 0.000000
vt 0.028112 -0.446165 0.000000
vt 0.010702 -0.469348 0.000000
vt 0.028112 -0.446165 0.000000
vt 0.039484 -0.419496 0.000000
vt 0.044628 -0.424641 0.000000
vt 0.021812 -0.442528 0.000000
vt 0.044628 -0.424641 0.000000
vt 0.062515 -0.401824 0.000000
vt 0.066153 -0.408125 0.000000
vt 0.039484 -0.419496 0.000000
vt 0.066153 -0.408125 0.000000
vt 0.089335 -0.390715 0.000000
vt 0.091218 -0.397742 0.000000
vt 0.062515 -0.401824 0.000000
vt 0.091218 -0.397742 0.000000
vt 0.118117 -0.386926 0.000000
vt 0.118117 -0.394201 0.000000
vt 0.089335 -0.390715 0.000000
vt 0.118117 -0.394201 0.000000
vt 0.146899 -0.390715 0.000000
vt 0.145016 -0.397742 0.000000
vt 0.118117 -0.386926 0.000000
vt 0.145016 -0.397742 0.000000
vt 0.173719 -0.401824 0.000000
vt 0.170081 -0.408125 0.000000
vt 0.146899 -0.390715 0.000000
vt 0.170081 -0.408125 0.000000
vt 0.196750 -0.419497 0.000000
vt 0.191606 -0.424641 0.000000
vt 0.173719 -0.401824 0.000000
vt 0.191606 -0.424641 0.000000
vt 0.214422 -0.442528 0.000000
vt 0.208122 -0.446165 0.000000
vt 0.196750 -0.419497 0.000000
vt 0.208122 -0.446165 0.000000
vt 0.225532 -0.469348 0.000000
vt 0.218504 -0.471231 0.000000
vt 0.214422 -0.442528 0.000000
vt 0.282789 -0.523538 0.000000
vt 0.273451 -0.523538 0.000000
vt 0.278120 -0.522287 0.000000
vt 0.287458 -0.531625 0.000000
vt 0.270033 -0.536294 0.000000
vt 0.268965 -0.532308 0.000000
vt 0.268782 -0.531625 0.000000
vt 0.270033 -0.526956 0.000000
vt 0.286207 -0.526956 0.000000
vt 0.273451 -0.539712 0.000000
vt 0.278120 -0.540963 0.000000
vt 0.282789 -0.539712 0.000000
vt 0.286207 -0.536294 0.000000
vt 0.444502 -0.526466 0.000000
vt 0.444502 -0.473121 0.000000
vt 0.448014 -0.499793 0.000000
vt 0.425724 -0.462411 0.000000
vt 0.417830 -0.426923 0.000000
vt 0.434207 -0.448266 0.000000
vt 0.434207 -0.551320 0.000000
vt 0.423930 -0.469107 0.000000
vt 0.419028 -0.474009 0.000000
vt 0.412332 -0.475803 0.000000
vt 0.405636 -0.474009 0.000000
vt 0.400734 -0.469107 0.000000
vt 0.417830 -0.572663 0.000000
vt 0.371632 -0.599336 0.000000
vt 0.398940 -0.462411 0.000000
vt 0.344960 -0.602847 0.000000
vt 0.400734 -0.455715 0.000000
vt 0.396487 -0.589041 0.000000
vt 0.318288 -0.599336 0.000000
vt 0.291818 -0.531602 0.000000
vt 0.290024 -0.524906 0.000000
vt 0.405636 -0.450814 0.000000
vt 0.272090 -0.426923 0.000000
vt 0.412332 -0.449020 0.000000
vt 0.293433 -0.589041 0.000000
vt 0.290024 -0.538298 0.000000
vt 0.285122 -0.543200 0.000000
vt 0.278426 -0.544994 0.000000
vt 0.271730 -0.543200 0.000000
vt 0.266828 -0.538298 0.000000
vt 0.272090 -0.572663 0.000000
vt 0.255713 -0.551320 0.000000
vt 0.265297 -0.532582 0.000000
vt 0.265034 -0.531602 0.000000
vt 0.266828 -0.524906 0.000000
vt 0.245418 -0.526466 0.000000
vt 0.271730 -0.520004 0.000000
vt 0.241906 -0.499793 0.000000
vt 0.278426 -0.518210 0.000000
vt 0.285122 -0.520004 0.000000
vt 0.245418 -0.473121 0.000000
vt 0.255713 -0.448266 0.000000
vt 0.293433 -0.410546 0.000000
vt 0.344960 -0.396739 0.000000
vt 0.419028 -0.450814 0.000000
vt 0.371632 -0.400251 0.000000
vt 0.396487 -0.410546 0.000000
vt 0.423930 -0.455715 0.000000
vt 0.318288 -0.400251 0.000000
vt 0.421670 -0.462411 0.000000
vt 0.417001 -0.454324 0.000000
vt 0.420419 -0.457742 0.000000
vt 0.402994 -0.462411 0.000000
vt 0.407663 -0.454324 0.000000
vt 0.412332 -0.453073 0.000000
vt 0.404245 -0.467080 0.000000
vt 0.407663 -0.470498 0.000000
vt 0.412332 -0.471749 0.000000
vt 0.417001 -0.470498 0.000000
vt 0.420419 -0.467080 0.000000
vt 0.404245 -0.457742 0.000000
vt 0.291818 -0.531602 0.000000
vt 0.289217 -0.525340 0.000000
vt 0.290024 -0.524906 0.000000
vt 0.290896 -0.531607 0.000000
vt 0.290024 -0.524906 0.000000
vt 0.284629 -0.520751 0.000000
vt 0.285122 -0.520004 0.000000
vt 0.289217 -0.525340 0.000000
vt 0.285122 -0.520004 0.000000
vt 0.278361 -0.519072 0.000000
vt 0.278426 -0.518210 0.000000
vt 0.284629 -0.520751 0.000000
vt 0.278426 -0.518210 0.000000
vt 0.272094 -0.520751 0.000000
vt 0.271730 -0.520004 0.000000
vt 0.278361 -0.519072 0.000000
vt 0.271730 -0.520004 0.000000
vt 0.267506 -0.525339 0.000000
vt 0.266828 -0.524906 0.000000
vt 0.272094 -0.520751 0.000000
vt 0.266828 -0.524906 0.000000
vt 0.265826 -0.531607 0.000000
vt 0.265034 -0.531602 0.000000
vt 0.267506 -0.525339 0.000000
vt 0.266072 -0.532524 0.000000
vt 0.265034 -0.531602 0.000000
vt 0.265826 -0.531607 0.000000
vt 0.265297 -0.532582 0.000000
vt 0.267506 -0.537874 0.000000
vt 0.266828 -0.538298 0.000000
vt 0.266828 -0.538298 0.000000
vt 0.272094 -0.542462 0.000000
vt 0.271730 -0.543200 0.000000
vt 0.267506 -0.537874 0.000000
vt 0.271730 -0.543200 0.000000
vt 0.278361 -0.544142 0.000000
vt 0.278426 -0.544994 0.000000
vt 0.272094 -0.542462 0.000000
vt 0.278426 -0.544994 0.000000
vt 0.284629 -0.542462 0.000000
vt 0.285122 -0.543200 0.000000
vt 0.278361 -0.544142 0.000000
vt 0.285122 -0.543200 0.000000
vt 0.289217 -0.537874 0.000000
vt 0.290024 -0.538298 0.000000
vt 0.284629 -0.542462 0.000000
vt 0.290024 -0.538298 0.000000
vt 0.290896 -0.531607 0.000000
vt 0.291818 -0.531602 0.000000
vt 0.289217 -0.537874 0.000000
vt 0.425724 -0.462411 0.000000
vt 0.423188 -0.456144 0.000000
vt 0.423930 -0.455715 0.000000
vt 0.424867 -0.462411 0.000000
vt 0.423930 -0.455715 0.000000
vt 0.418600 -0.451556 0.000000
vt 0.419028 -0.450814 0.000000
vt 0.423188 -0.456144 0.000000
vt 0.419028 -0.450814 0.000000
vt 0.412332 -0.449876 0.000000
vt 0.412332 -0.449020 0.000000
vt 0.418600 -0.451556 0.000000
vt 0.412332 -0.449020 0.000000
vt 0.406065 -0.451556 0.000000
vt 0.405636 -0.450814 0.000000
vt 0.412332 -0.449876 0.000000
vt 0.405636 -0.450814 0.000000
vt 0.401477 -0.456144 0.000000
vt 0.400734 -0.455715 0.000000
vt 0.406065 -0.451556 0.000000
vt 0.400734 -0.455715 0.000000
vt 0.399797 -0.462411 0.000000
vt 0.398940 -0.462411 0.000000
vt 0.401477 -0.456144 0.000000
vt 0.398940 -0.462411 0.000000
vt 0.401477 -0.468679 0.000000
vt 0.400734 -0.469107 0.000000
vt 0.399797 -0.462411 0.000000
vt 0.400734 -0.469107 0.000000
vt 0.406065 -0.473267 0.000000
vt 0.405636 -0.474009 0.000000
vt 0.401477 -0.468679 0.000000
vt 0.405636 -0.474009 0.000000
vt 0.412332 -0.474946 0.000000
vt 0.412332 -0.475803 0.000000
vt 0.406065 -0.473267 0.000000
vt 0.412332 -0.475803 0.000000
vt 0.418600 -0.473267 0.000000
vt 0.419028 -0.474009 0.000000
vt 0.412332 -0.474946 0.000000
vt 0.419028 -0.474009 0.000000
vt 0.423188 -0.468679 0.000000
vt 0.423930 -0.469107 0.000000
vt 0.418600 -0.473267 0.000000
vt 0.423930 -0.469107 0.000000
vt 0.424867 -0.462411 0.000000
vt 0.425724 -0.462411 0.000000
vt 0.423188 -0.468679 0.000000
vt 0.288601 -0.531619 0.000000
vt 0.286207 -0.526956 0.000000
vt 0.287207 -0.526419 0.000000
vt 0.287458 -0.531625 0.000000
vt 0.287207 -0.526419 0.000000
vt 0.282789 -0.523538 0.000000
vt 0.283400 -0.522612 0.000000
vt 0.286207 -0.526956 0.000000
vt 0.283400 -0.522612 0.000000
vt 0.278120 -0.522287 0.000000
vt 0.278200 -0.521219 0.000000
vt 0.282789 -0.523538 0.000000
vt 0.278200 -0.521219 0.000000
vt 0.273451 -0.523538 0.000000
vt 0.273000 -0.522612 0.000000
vt 0.278120 -0.522287 0.000000
vt 0.273000 -0.522612 0.000000
vt 0.270033 -0.526956 0.000000
vt 0.269193 -0.526419 0.000000
vt 0.273451 -0.523538 0.000000
vt 0.269193 -0.526419 0.000000
vt 0.268782 -0.531625 0.000000
vt 0.267800 -0.531619 0.000000
vt 0.270033 -0.526956 0.000000
vt 0.268965 -0.532308 0.000000
vt 0.267800 -0.531619 0.000000
vt 0.268782 -0.531625 0.000000
vt 0.268004 -0.532380 0.000000
vt 0.270033 -0.536294 0.000000
vt 0.269193 -0.536819 0.000000
vt 0.269193 -0.536819 0.000000
vt 0.273451 -0.539712 0.000000
vt 0.273000 -0.540626 0.000000
vt 0.270033 -0.536294 0.000000
vt 0.273000 -0.540626 0.000000
vt 0.278120 -0.540963 0.000000
vt 0.278200 -0.542019 0.000000
vt 0.273451 -0.539712 0.000000
vt 0.278200 -0.542019 0.000000
vt 0.282789 -0.539712 0.000000
vt 0.283400 -0.540626 0.000000
vt 0.278120 -0.540963 0.000000
vt 0.283400 -0.540626 0.000000
vt 0.286207 -0.536294 0.000000
vt 0.287207 -0.536819 0.000000
vt 0.282789 -0.539712 0.000000
vt 0.287207 -0.536819 0.000000
vt 0.287458 -0.531625 0.000000
vt 0.288601 -0.531619 0.000000
vt 0.286207 -0.536294 0.000000
vt 0.422733 -0.462411 0.000000
vt 0.420419 -0.457742 0.000000
vt 0.421339 -0.457211 0.000000
vt 0.421670 -0.462411 0.000000
vt 0.421339 -0.457211 0.000000
vt 0.417001 -0.454324 0.000000
vt 0.417532 -0.453404 0.000000
vt 0.420419 -0.457742 0.000000
vt 0.417532 -0.453404 0.000000
vt 0.412332 -0.453073 0.000000
vt 0.412332 -0.452011 0.000000
vt 0.417001 -0.454324 0.000000
vt 0.412332 -0.452011 0.000000
vt 0.407663 -0.454324 0.000000
vt 0.407132 -0.453404 0.000000
vt 0.412332 -0.453073 0.000000
vt 0.407132 -0.453404 0.000000
vt 0.404245 -0.457742 0.000000
vt 0.403325 -0.457211 0.000000
vt 0.407663 -0.454324 0.000000
vt 0.403325 -0.457211 0.000000
vt 0.402994 -0.462411 0.000000
vt 0.401932 -0.462411 0.000000
vt 0.404245 -0.457742 0.000000
vt 0.401932 -0.462411 0.000000
vt 0.404245 -0.467080 0.000000
vt 0.403325 -0.467611 0.000000
vt 0.402994 -0.462411 0.000000
vt 0.403325 -0.467611 0.000000
vt 0.407663 -0.470498 0.000000
vt 0.407132 -0.471418 0.000000
vt 0.404245 -0.467080 0.000000
vt 0.407132 -0.471418 0.000000
vt 0.412332 -0.471749 0.000000
vt 0.412332 -0.472812 0.000000
vt 0.407663 -0.470498 0.000000
vt 0.412332 -0.472812 0.000000
vt 0.417001 -0.470498 0.000000
vt 0.417532 -0.471418 0.000000
vt 0.412332 -0.471749 0.000000
vt 0.417532 -0.471418 0.000000
vt 0.420419 -0.467080 0.000000
vt 0.421339 -0.467611 0.000000
vt 0.417001 -0.470498 0.000000
vt 0.421339 -0.467611 0.000000
vt 0.421670 -0.462411 0.000000
vt 0.422733 -0.462411 0.000000
vt 0.420419 -0.467080 0.000000
vt 0.442210 -0.556127 0.000000
vt 0.451127 -0.528708 0.000000
vt 0.453324 -0.529297 0.000000
vt 0.440240 -0.554990 0.000000
vt 0.424531 -0.579167 0.000000
vt 0.422922 -0.577559 0.000000
vt 0.401490 -0.596847 0.000000
vt 0.400353 -0.594877 0.000000
vt 0.374660 -0.607960 0.000000
vt 0.374071 -0.605763 0.000000
vt 0.345867 -0.611751 0.000000
vt 0.345867 -0.609477 0.000000
vt 0.317074 -0.607960 0.000000
vt 0.317663 -0.605763 0.000000
vt 0.290243 -0.596847 0.000000
vt 0.291380 -0.594877 0.000000
vt 0.267203 -0.579167 0.000000
vt 0.268811 -0.577559 0.000000
vt 0.249524 -0.556127 0.000000
vt 0.251493 -0.554990 0.000000
vt 0.238410 -0.529296 0.000000
vt 0.240607 -0.528708 0.000000
vt 0.234620 -0.500504 0.000000
vt 0.236894 -0.500504 0.000000
vt 0.238410 -0.471711 0.000000
vt 0.240607 -0.472299 0.000000
vt 0.249524 -0.444880 0.000000
vt 0.251494 -0.446017 0.000000
vt 0.267203 -0.421840 0.000000
vt 0.268811 -0.423448 0.000000
vt 0.290243 -0.404161 0.000000
vt 0.291380 -0.406130 0.000000
vt 0.317074 -0.393047 0.000000
vt 0.317663 -0.395244 0.000000
vt 0.345867 -0.389256 0.000000
vt 0.345867 -0.391531 0.000000
vt 0.374660 -0.393047 0.000000
vt 0.374071 -0.395244 0.000000
vt 0.401491 -0.404161 0.000000
vt 0.400353 -0.406130 0.000000
vt 0.424531 -0.421840 0.000000
vt 0.422922 -0.423448 0.000000
vt 0.442210 -0.444880 0.000000
vt 0.440240 -0.446017 0.000000
vt 0.453324 -0.471711 0.000000
vt 0.451127 -0.472299 0.000000
vt 0.457114 -0.500504 0.000000
vt 0.454840 -0.500504 0.000000
vt 0.193280 -0.422966 0.000000
vt 0.208122 -0.446165 0.000000
vt 0.210173 -0.444981 0.000000
vt 0.191606 -0.424641 0.000000
vt 0.171265 -0.406074 0.000000
vt 0.170081 -0.408125 0.000000
vt 0.145629 -0.395455 0.000000
vt 0.145016 -0.397742 0.000000
vt 0.118117 -0.391833 0.000000
vt 0.118117 -0.394201 0.000000
vt 0.090605 -0.395455 0.000000
vt 0.091218 -0.397742 0.000000
vt 0.064969 -0.406074 0.000000
vt 0.066153 -0.408125 0.000000
vt 0.042954 -0.422966 0.000000
vt 0.044628 -0.424641 0.000000
vt 0.026061 -0.444981 0.000000
vt 0.028112 -0.446165 0.000000
vt 0.015442 -0.470618 0.000000
vt 0.017730 -0.471231 0.000000
vt 0.011820 -0.498129 0.000000
vt 0.014188 -0.498129 0.000000
vt 0.015442 -0.525641 0.000000
vt 0.017730 -0.525028 0.000000
vt 0.026061 -0.551278 0.000000
vt 0.028112 -0.550094 0.000000
vt 0.042954 -0.573293 0.000000
vt 0.044628 -0.571618 0.000000
vt 0.064968 -0.590185 0.000000
vt 0.066153 -0.588134 0.000000
vt 0.090605 -0.600804 0.000000
vt 0.091218 -0.598517 0.000000
vt 0.118117 -0.604426 0.000000
vt 0.118117 -0.602058 0.000000
vt 0.145629 -0.600804 0.000000
vt 0.145016 -0.598517 0.000000
vt 0.171265 -0.590185 0.000000
vt 0.170081 -0.588134 0.000000
vt 0.193280 -0.573293 0.000000
vt 0.191606 -0.571618 0.000000
vt 0.210173 -0.551278 0.000000
vt 0.208122 -0.550094 0.000000
vt 0.220792 -0.525641 0.000000
vt 0.218504 -0.525028 0.000000
vt 0.224414 -0.498129 0.000000
vt 0.222046 -0.498129 0.000000
vt 0.220792 -0.470618 0.000000
vt 0.218504 -0.471231 0.000000
vt 0.284629 -0.542462 0.000000
vt 0.287207 -0.536819 0.000000
vt 0.289217 -0.537874 0.000000
vt 0.283400 -0.540626 0.000000
vt 0.278361 -0.544142 0.000000
vt 0.278200 -0.542019 0.000000
vt 0.272094 -0.542462 0.000000
vt 0.273000 -0.540626 0.000000
vt 0.267506 -0.537874 0.000000
vt 0.269193 -0.536819 0.000000
vt 0.266072 -0.532524 0.000000
vt 0.268004 -0.532380 0.000000
vt 0.265826 -0.531607 0.000000
vt 0.267800 -0.531619 0.000000
vt 0.267506 -0.525339 0.000000
vt 0.269193 -0.526419 0.000000
vt 0.272094 -0.520751 0.000000
vt 0.273000 -0.522612 0.000000
vt 0.278361 -0.519072 0.000000
vt 0.278200 -0.521219 0.000000
vt 0.284629 -0.520751 0.000000
vt 0.283400 -0.522612 0.000000
vt 0.289217 -0.525340 0.000000
vt 0.287207 -0.526419 0.000000
vt 0.290896 -0.531607 0.000000
vt 0.288601 -0.531619 0.000000
vt 0.418600 -0.473267 0.000000
vt 0.421339 -0.467611 0.000000
vt 0.423188 -0.468679 0.000000
vt 0.417532 -0.471418 0.000000
vt 0.412332 -0.474946 0.000000
vt 0.412332 -0.472812 0.000000
vt 0.406065 -0.473267 0.000000
vt 0.407132 -0.471418 0.000000
vt 0.401477 -0.468679 0.000000
vt 0.403325 -0.467611 0.000000
vt 0.399797 -0.462411 0.000000
vt 0.401932 -0.462411 0.000000
vt 0.401477 -0.456144 0.000000
vt 0.403325 -0.457211 0.000000
vt 0.406065 -0.451556 0.000000
vt 0.407132 -0.453404 0.000000
vt 0.412332 -0.449876 0.000000
vt 0.412332 -0.452011 0.000000
vt 0.418600 -0.451556 0.000000
vt 0.417532 -0.453404 0.000000
vt 0.423188 -0.456144 0.000000
vt 0.421339 -0.457211 0.000000
vt 0.424867 -0.462411 0.000000
vt 0.422733 -0.462411 0.000000
# 982 texture coords

g Mesh_0104
usemtl Tex_0104_0_dds
s 1
f 1/1 2/2 3/3 
s 2
f 2/2 1/1 4/4 
s 3
f 5/5 4/4 1/1 
s 4
f 4/4 5/5 6/6 
s 5
f 7/7 6/6 5/5 
s 6
f 6/6 7/7 8/8 
s 7
f 9/9 8/8 7/7 
s 8
f 8/8 9/9 10/10 
s 9
f 11/11 10/10 9/9 
s 10
f 10/10 11/11 12/12 
s 11
f 13/13 12/12 11/11 
s 12
f 12/12 13/13 14/14 
s 13
f 15/15 14/14 13/13 
s 14
f 14/14 15/15 16/16 
s 15
f 17/17 16/16 15/15 
s 16
f 16/16 17/17 18/18 
s 17
f 19/19 18/18 17/17 
s 18
f 18/18 19/19 20/20 
s 19
f 21/21 20/20 19/19 
s 20
f 20/20 21/21 22/22 
s 21
f 23/23 22/22 21/21 
s 22
f 22/22 23/23 24/24 
s 23
f 25/25 24/24 23/23 
s 24
f 24/24 25/25 26/26 
s 25
f 27/27 26/26 25/25 
s 26
f 26/26 27/27 28/28 
s 27
f 29/29 28/28 27/27 
s 28
f 28/28 29/29 30/30 
s 29
f 31/31 30/30 29/29 
s 30
f 30/30 31/31 32/32 
s 31
f 33/33 32/32 31/31 
s 32
f 32/32 33/33 34/34 
s 33
f 35/35 34/34 33/33 
s 34
f 34/34 35/35 36/36 
s 35
f 37/37 36/36 35/35 
s 36
f 36/36 37/37 38/38 
s 37
f 39/39 38/38 37/37 
s 38
f 38/38 39/39 40/40 
s 39
f 41/41 40/40 39/39 
s 40
f 40/40 41/41 42/42 
s 41
f 43/43 42/42 41/41 
s 42
f 42/42 43/43 44/44 
s 43
f 45/45 44/44 43/43 
s 44
f 44/44 45/45 46/46 
s 45
f 47/47 46/46 45/45 
s 46
f 46/46 47/47 48/48 
s 47
f 49/49 48/48 47/47 
s 48
f 48/48 49/49 50/50 
s 49
f 51/51 52/52 53/53 
s 50
f 52/52 51/51 54/54 
s 51
f 55/55 54/54 51/51 
s 52
f 54/54 55/55 56/56 
s 53
f 57/57 56/56 55/55 
s 54
f 56/56 57/57 58/58 
s 55
f 59/59 58/58 57/57 
s 56
f 58/58 59/59 60/60 
s 57
f 61/61 60/60 59/59 
s 58
f 60/60 61/61 62/62 
s 59
f 63/63 62/62 61/61 
s 60
f 62/62 63/63 64/64 
s 61
f 65/65 64/64 63/63 
s 62
f 64/64 65/65 66/66 
s 63
f 67/67 66/66 65/65 
s 64
f 66/66 67/67 68/68 
s 65
f 69/69 68/68 67/67 
s 66
f 68/68 69/69 70/70 
s 67
f 71/71 70/70 69/69 
s 68
f 70/70 71/71 72/72 
s 69
f 73/73 72/72 71/71 
s 70
f 72/72 73/73 74/74 
s 71
f 75/75 74/74 73/73 
s 72
f 74/74 75/75 76/76 
s 73
f 77/77 76/76 75/75 
s 74
f 76/76 77/77 78/78 
s 75
f 79/79 78/78 77/77 
s 76
f 78/78 79/79 80/80 
s 77
f 81/81 80/80 79/79 
s 78
f 80/80 81/81 82/82 
s 79
f 83/83 82/82 81/81 
s 80
f 82/82 83/83 84/84 
s 81
f 85/85 84/84 83/83 
s 82
f 84/84 85/85 86/86 
s 83
f 87/87 86/86 85/85 
s 84
f 86/86 87/87 88/88 
s 85
f 89/89 88/88 87/87 
s 86
f 88/88 89/89 90/90 
s 87
f 91/91 90/90 89/89 
s 88
f 90/90 91/91 92/92 
s 89
f 93/93 92/92 91/91 
s 90
f 92/92 93/93 94/94 
s 91
f 95/95 94/94 93/93 
s 92
f 94/94 95/95 96/96 
s 93
f 97/97 96/96 95/95 
s 94
f 96/96 97/97 98/98 
s 95
f 99/99 98/98 97/97 
s 96
f 98/98 99/99 100/100 
s 97
f 101/101 102/102 103/103 
s 98
f 102/102 101/101 104/104 
s 99
f 105/105 104/104 101/101 
s 100
f 104/104 105/105 106/106 
s 101
f 107/107 106/106 105/105 
s 102
f 106/106 107/107 108/108 
s 103
f 109/109 108/108 107/107 
s 104
f 108/108 109/109 110/110 
s 105
f 111/111 110/110 109/109 
s 106
f 110/110 111/111 112/112 
s 107
f 113/113 112/112 111/111 
s 108
f 112/112 113/113 114/114 
s 109
f 115/115 114/114 113/113 
s 110
f 114/114 115/115 116/116 
s 111
f 117/117 116/116 115/115 
s 112
f 116/116 117/117 118/118 
s 113
f 119/119 118/118 117/117 
s 114
f 118/118 119/119 120/120 
s 115
f 121/121 120/120 119/119 
s 116
f 120/120 121/121 122/122 
s 117
f 123/123 122/122 121/121 
s 118
f 122/122 123/123 124/124 
s 119
f 125/125 124/124 123/123 
s 120
f 124/124 125/125 126/126 
s 121
f 127/127 126/126 125/125 
s 122
f 126/126 127/127 128/128 
s 123
f 129/129 128/128 127/127 
s 124
f 128/128 129/129 130/130 
s 125
f 131/131 130/130 129/129 
s 126
f 130/130 131/131 132/132 
s 127
f 133/133 132/132 131/131 
s 128
f 132/132 133/133 134/134 
s 129
f 135/135 134/134 133/133 
s 130
f 134/134 135/135 136/136 
s 131
f 137/137 136/136 135/135 
s 132
f 136/136 137/137 138/138 
s 133
f 139/139 138/138 137/137 
s 134
f 138/138 139/139 140/140 
s 135
f 141/141 140/140 139/139 
s 136
f 140/140 141/141 142/142 
s 137
f 143/143 142/142 141/141 
s 138
f 142/142 143/143 144/144 
s 139
f 145/145 144/144 143/143 
s 140
f 144/144 145/145 146/146 
s 141
f 147/147 146/146 145/145 
s 142
f 146/146 147/147 148/148 
s 143
f 149/149 148/148 147/147 
s 144
f 148/148 149/149 150/150 
s 145
f 151/151 152/152 153/153 
s 146
f 154/154 152/152 151/151 
s 147
f 155/155 152/152 154/154 
s 148
f 155/155 156/156 152/152 
s 149
f 152/152 156/156 157/157 
s 150
f 152/152 157/157 158/158 
s 151
f 152/152 158/158 159/159 
s 152
f 154/154 151/151 160/160 
s 153
f 158/158 157/157 161/161 
s 154
f 155/155 162/162 163/163 
s 155
f 155/155 154/154 162/162 
s 156
f 162/162 154/154 164/164 
s 157
f 165/165 155/155 166/166 
s 158
f 167/167 155/155 165/165 
s 159
f 167/167 156/156 155/155 
s 160
f 168/168 156/156 167/167 
s 161
f 169/169 156/156 168/168 
s 162
f 167/167 165/165 170/170 
s 163
f 168/168 167/167 171/171 
s 164
f 172/172 156/156 173/173 
s 165
f 157/157 156/156 172/172 
s 166
f 157/157 172/172 174/174 
s 167
f 175/175 176/176 177/177 
s 168
f 176/176 175/175 178/178 
s 169
f 178/178 179/179 176/176 
s 170
f 179/179 178/178 180/180 
s 171
f 180/180 181/181 179/179 
s 172
f 181/181 180/180 182/182 
s 173
f 183/183 178/178 175/175 
s 174
f 178/178 183/183 184/184 
s 175
f 184/184 180/180 178/178 
s 176
f 180/180 184/184 185/185 
s 177
f 185/185 182/182 180/180 
s 178
f 182/182 185/185 186/186 
s 179
f 187/187 186/186 185/185 
s 180
f 186/186 187/187 188/188 
s 181
f 189/189 184/184 183/183 
s 182
f 184/184 189/189 190/190 
s 183
f 190/190 185/185 184/184 
s 184
f 185/185 190/190 187/187 
s 185
f 191/191 187/187 190/190 
s 186
f 187/187 191/191 192/192 
s 187
f 192/192 188/188 187/187 
s 188
f 188/188 192/192 193/193 
s 189
f 194/194 193/193 192/192 
s 190
f 193/193 194/194 195/195 
s 191
f 196/196 190/190 189/189 
s 192
f 190/190 196/196 191/191 
s 193
f 197/197 191/191 196/196 
s 194
f 191/191 197/197 198/198 
s 195
f 198/198 192/192 191/191 
s 196
f 192/192 198/198 194/194 
s 197
f 199/199 194/194 198/198 
s 198
f 194/194 199/199 200/200 
s 199
f 200/200 195/195 194/194 
s 200
f 195/195 200/200 201/201 
s 201
f 202/202 201/201 200/200 
s 202
f 201/201 202/202 203/203 
s 203
f 204/204 198/198 197/197 
s 204
f 198/198 204/204 199/199 
s 205
f 205/205 199/199 204/204 
s 206
f 199/199 205/205 206/206 
s 207
f 206/206 200/200 199/199 
s 208
f 200/200 206/206 202/202 
s 209
f 207/207 202/202 206/206 
s 210
f 202/202 207/207 208/208 
s 211
f 208/208 203/203 202/202 
s 212
f 203/203 208/208 209/209 
s 213
f 210/210 209/209 208/208 
s 214
f 209/209 210/210 211/211 
s 215
f 212/212 206/206 205/205 
s 216
f 206/206 212/212 207/207 
s 217
f 213/213 207/207 212/212 
s 218
f 207/207 213/213 214/214 
s 219
f 214/214 208/208 207/207 
s 220
f 208/208 214/214 210/210 
s 221
f 215/215 210/210 214/214 
s 222
f 210/210 215/215 216/216 
s 223
f 216/216 211/211 210/210 
s 224
f 211/211 216/216 217/217 
s 225
f 218/218 217/217 216/216 
s 226
f 217/217 218/218 219/219 
s 227
f 220/220 214/214 213/213 
s 228
f 214/214 220/220 215/215 
s 229
f 221/221 215/215 220/220 
s 230
f 215/215 221/221 222/222 
s 231
f 222/222 216/216 215/215 
s 232
f 216/216 222/222 218/218 
s 233
f 223/223 218/218 222/222 
s 234
f 218/218 223/223 224/224 
s 235
f 224/224 219/219 218/218 
s 236
f 219/219 224/224 225/225 
s 237
f 226/226 225/225 224/224 
s 238
f 225/225 226/226 227/227 
s 239
f 228/228 222/222 221/221 
s 240
f 222/222 228/228 223/223 
s 241
f 229/229 223/223 228/228 
s 242
f 223/223 229/229 230/230 
s 243
f 230/230 224/224 223/223 
s 244
f 224/224 230/230 226/226 
s 245
f 231/231 226/226 230/230 
s 246
f 226/226 231/231 232/232 
s 247
f 232/232 227/227 226/226 
s 248
f 227/227 232/232 233/233 
s 249
f 234/234 233/233 232/232 
s 250
f 233/233 234/234 235/235 
s 251
f 236/236 230/230 229/229 
s 252
f 230/230 236/236 231/231 
s 253
f 237/237 231/231 236/236 
s 254
f 231/231 237/237 238/238 
s 255
f 238/238 232/232 231/231 
s 256
f 232/232 238/238 234/234 
s 257
f 239/239 234/234 238/238 
s 258
f 234/234 239/239 240/240 
s 259
f 240/240 235/235 234/234 
s 260
f 235/235 240/240 241/241 
s 261
f 242/242 241/241 240/240 
s 262
f 241/241 242/242 243/243 
s 263
f 244/244 238/238 237/237 
s 264
f 238/238 244/244 239/239 
s 265
f 245/245 239/239 244/244 
s 266
f 239/239 245/245 246/246 
s 267
f 246/246 240/240 239/239 
s 268
f 240/240 246/246 242/242 
s 269
f 247/247 242/242 246/246 
s 270
f 242/242 247/247 248/248 
s 271
f 248/248 243/243 242/242 
s 272
f 243/243 248/248 249/249 
s 273
f 250/250 249/249 248/248 
s 274
f 249/249 250/250 251/251 
s 275
f 252/252 246/246 245/245 
s 276
f 246/246 252/252 247/247 
s 277
f 253/253 247/247 252/252 
s 278
f 247/247 253/253 254/254 
s 279
f 254/254 248/248 247/247 
s 280
f 248/248 254/254 250/250 
s 281
f 255/255 250/250 254/254 
s 282
f 250/250 255/255 256/256 
s 283
f 256/256 251/251 250/250 
s 284
f 251/251 256/256 257/257 
s 285
f 258/258 257/257 256/256 
s 286
f 257/257 258/258 259/259 
s 287
f 260/260 254/254 253/253 
s 288
f 254/254 260/260 255/255 
s 289
f 261/261 255/255 260/260 
s 290
f 255/255 261/261 262/262 
s 291
f 262/262 256/256 255/255 
s 292
f 256/256 262/262 258/258 
s 293
f 263/263 258/258 262/262 
s 294
f 258/258 263/263 264/264 
s 295
f 264/264 259/259 258/258 
s 296
f 259/259 264/264 265/265 
s 297
f 266/266 265/265 264/264 
s 298
f 265/265 266/266 267/267 
s 299
f 268/268 262/262 261/261 
s 300
f 262/262 268/268 263/263 
s 301
f 269/269 263/263 268/268 
s 302
f 263/263 269/269 270/270 
s 303
f 270/270 264/264 263/263 
s 304
f 264/264 270/270 266/266 
s 305
f 271/271 266/266 270/270 
s 306
f 266/266 271/271 272/272 
s 307
f 272/272 267/267 266/266 
s 308
f 267/267 272/272 273/273 
s 309
f 274/274 270/270 269/269 
s 310
f 270/270 274/274 271/271 
s 311
f 275/275 276/276 277/277 
s 312
f 276/276 275/275 278/278 
s 313
f 278/278 279/279 276/276 
s 314
f 279/279 278/278 280/280 
s 315
f 280/280 281/281 279/279 
s 316
f 281/281 280/280 282/282 
s 317
f 283/283 278/278 275/275 
s 318
f 278/278 283/283 284/284 
s 319
f 284/284 280/280 278/278 
s 320
f 280/280 284/284 285/285 
s 321
f 285/285 282/282 280/280 
s 322
f 282/282 285/285 286/286 
s 323
f 287/287 286/286 285/285 
s 324
f 286/286 287/287 288/288 
s 325
f 289/289 284/284 283/283 
s 326
f 284/284 289/289 290/290 
s 327
f 290/290 285/285 284/284 
s 328
f 285/285 290/290 287/287 
s 329
f 291/291 287/287 290/290 
s 330
f 287/287 291/291 292/292 
s 331
f 292/292 288/288 287/287 
s 332
f 288/288 292/292 293/293 
s 333
f 294/294 293/293 292/292 
s 334
f 293/293 294/294 295/295 
s 335
f 296/296 290/290 289/289 
s 336
f 290/290 296/296 291/291 
s 337
f 297/297 291/291 296/296 
s 338
f 291/291 297/297 298/298 
s 339
f 298/298 292/292 291/291 
s 340
f 292/292 298/298 294/294 
s 341
f 299/299 294/294 298/298 
s 342
f 294/294 299/299 300/300 
s 343
f 300/300 295/295 294/294 
s 344
f 295/295 300/300 301/301 
s 345
f 302/302 301/301 300/300 
s 346
f 301/301 302/302 303/303 
s 347
f 304/304 298/298 297/297 
s 348
f 298/298 304/304 299/299 
s 349
f 305/305 299/299 304/304 
s 350
f 299/299 305/305 306/306 
s 351
f 306/306 300/300 299/299 
s 352
f 300/300 306/306 302/302 
s 353
f 307/307 302/302 306/306 
s 354
f 302/302 307/307 308/308 
s 355
f 308/308 303/303 302/302 
s 356
f 303/303 308/308 309/309 
s 357
f 310/310 309/309 308/308 
s 358
f 309/309 310/310 311/311 
s 359
f 312/312 306/306 305/305 
s 360
f 306/306 312/312 307/307 
s 361
f 313/313 307/307 312/312 
s 362
f 307/307 313/313 314/314 
s 363
f 314/314 308/308 307/307 
s 364
f 308/308 314/314 310/310 
s 365
f 315/315 310/310 314/314 
s 366
f 310/310 315/315 316/316 
s 367
f 316/316 311/311 310/310 
s 368
f 311/311 316/316 317/317 
s 369
f 318/318 317/317 316/316 
s 370
f 317/317 318/318 319/319 
s 371
f 320/320 314/314 313/313 
s 372
f 314/314 320/320 315/315 
s 373
f 321/321 315/315 320/320 
s 374
f 315/315 321/321 322/322 
s 375
f 322/322 316/316 315/315 
s 376
f 316/316 322/322 318/318 
s 377
f 323/323 318/318 322/322 
s 378
f 318/318 323/323 324/324 
s 379
f 324/324 319/319 318/318 
s 380
f 319/319 324/324 325/325 
s 381
f 326/326 325/325 324/324 
s 382
f 325/325 326/326 327/327 
s 383
f 328/328 322/322 321/321 
s 384
f 322/322 328/328 323/323 
s 385
f 329/329 323/323 328/328 
s 386
f 323/323 329/329 330/330 
s 387
f 330/330 324/324 323/323 
s 388
f 324/324 330/330 326/326 
s 389
f 331/331 326/326 330/330 
s 390
f 326/326 331/331 332/332 
s 391
f 332/332 327/327 326/326 
s 392
f 327/327 332/332 333/333 
s 393
f 334/334 333/333 332/332 
s 394
f 333/333 334/334 335/335 
s 395
f 336/336 330/330 329/329 
s 396
f 330/330 336/336 331/331 
s 397
f 337/337 331/331 336/336 
s 398
f 331/331 337/337 338/338 
s 399
f 338/338 332/332 331/331 
s 400
f 332/332 338/338 334/334 
s 401
f 339/339 334/334 338/338 
s 402
f 334/334 339/339 340/340 
s 403
f 340/340 335/335 334/334 
s 404
f 335/335 340/340 341/341 
s 405
f 342/342 341/341 340/340 
s 406
f 341/341 342/342 343/343 
s 407
f 344/344 338/338 337/337 
s 408
f 338/338 344/344 339/339 
s 409
f 345/345 339/339 344/344 
s 410
f 339/339 345/345 346/346 
s 411
f 346/346 340/340 339/339 
s 412
f 340/340 346/346 342/342 
s 413
f 347/347 342/342 346/346 
s 414
f 342/342 347/347 348/348 
s 415
f 348/348 343/343 342/342 
s 416
f 343/343 348/348 349/349 
s 417
f 350/350 349/349 348/348 
s 418
f 349/349 350/350 351/351 
s 419
f 352/352 346/346 345/345 
s 420
f 346/346 352/352 347/347 
s 421
f 353/353 347/347 352/352 
s 422
f 347/347 353/353 354/354 
s 423
f 354/354 348/348 347/347 
s 424
f 348/348 354/354 350/350 
s 425
f 355/355 350/350 354/354 
s 426
f 350/350 355/355 356/356 
s 427
f 356/356 351/351 350/350 
s 428
f 351/351 356/356 357/357 
s 429
f 358/358 357/357 356/356 
s 430
f 357/357 358/358 359/359 
s 431
f 360/360 354/354 353/353 
s 432
f 354/354 360/360 355/355 
s 433
f 361/361 355/355 360/360 
s 434
f 355/355 361/361 362/362 
s 435
f 362/362 356/356 355/355 
s 436
f 356/356 362/362 358/358 
s 437
f 363/363 358/358 362/362 
s 438
f 358/358 363/363 364/364 
s 439
f 364/364 359/359 358/358 
s 440
f 359/359 364/364 365/365 
s 441
f 366/366 365/365 364/364 
s 442
f 365/365 366/366 367/367 
s 443
f 368/368 362/362 361/361 
s 444
f 362/362 368/368 363/363 
s 445
f 369/369 363/363 368/368 
s 446
f 363/363 369/369 370/370 
s 447
f 370/370 364/364 363/363 
s 448
f 364/364 370/370 366/366 
s 449
f 371/371 366/366 370/370 
s 450
f 366/366 371/371 372/372 
s 451
f 372/372 367/367 366/366 
s 452
f 367/367 372/372 373/373 
s 453
f 374/374 370/370 369/369 
s 454
f 370/370 374/374 371/371 
s 455
f 375/375 376/376 377/377 
s 456
f 376/376 375/375 378/378 
s 457
f 379/379 380/380 381/381 
s 458
f 380/380 379/379 382/382 
s 459
f 383/383 384/384 385/385 
s 460
f 384/384 383/383 386/386 
s 461
f 387/387 388/388 389/389 
s 462
f 388/388 387/387 390/390 
s 463
f 391/391 392/392 393/393 
s 464
f 392/392 391/391 394/394 
s 465
f 395/395 396/396 397/397 
s 466
f 396/396 395/395 398/398 
s 467
f 399/399 400/400 401/401 
s 468
f 400/400 399/399 402/402 
s 469
f 403/403 404/404 405/405 
s 470
f 404/404 403/403 406/406 
s 471
f 407/407 408/408 409/409 
s 472
f 408/408 407/407 410/410 
s 473
f 411/411 412/412 413/413 
s 474
f 412/412 411/411 414/414 
s 475
f 415/415 416/416 417/417 
s 476
f 416/416 415/415 418/418 
s 477
f 419/419 420/420 421/421 
s 478
f 420/420 419/419 422/422 
s 479
f 423/423 424/424 425/425 
s 480
f 424/424 423/423 426/426 
s 481
f 427/427 428/428 429/429 
s 482
f 428/428 427/427 430/430 
s 483
f 431/431 432/432 433/433 
s 484
f 432/432 431/431 434/434 
s 485
f 435/435 436/436 437/437 
s 486
f 436/436 435/435 438/438 
s 487
f 439/439 440/440 441/441 
s 488
f 440/440 439/439 442/442 
s 489
f 443/443 444/444 445/445 
s 490
f 444/444 443/443 446/446 
s 491
f 447/447 448/448 449/449 
s 492
f 448/448 447/447 450/450 
s 493
f 451/451 452/452 453/453 
s 494
f 452/452 451/451 454/454 
s 495
f 455/455 456/456 457/457 
s 496
f 456/456 455/455 458/458 
s 497
f 459/459 460/460 461/461 
s 498
f 460/460 459/459 462/462 
s 499
f 463/463 464/464 465/465 
s 500
f 464/464 463/463 466/466 
s 501
f 467/467 468/468 469/469 
s 502
f 468/468 467/467 470/470 
s 503
f 471/471 472/472 473/473 
s 504
f 472/472 471/471 474/474 
s 505
f 475/475 476/476 477/477 
s 506
f 476/476 475/475 478/478 
s 507
f 479/479 480/480 481/481 
s 508
f 480/480 479/479 482/482 
s 509
f 483/483 484/484 485/485 
s 510
f 484/484 483/483 486/486 
s 511
f 487/487 488/488 489/489 
s 512
f 488/488 487/487 490/490 
s 513
f 491/491 492/492 493/493 
s 514
f 492/492 491/491 494/494 
s 515
f 495/495 496/496 497/497 
s 516
f 496/496 495/495 498/498 
s 517
f 499/499 500/500 501/501 
s 518
f 500/500 499/499 502/502 
s 519
f 503/503 504/504 505/505 
s 520
f 504/504 503/503 506/506 
s 521
f 507/507 508/508 509/509 
s 522
f 508/508 507/507 510/510 
s 523
f 511/511 512/512 513/513 
s 524
f 512/512 511/511 514/514 
s 525
f 515/515 516/516 517/517 
s 526
f 516/516 515/515 518/518 
s 527
f 519/519 520/520 521/521 
s 528
f 520/520 519/519 522/522 
s 529
f 523/523 524/524 525/525 
s 530
f 524/524 523/523 526/526 
s 531
f 527/527 528/528 529/529 
s 532
f 528/528 527/527 530/530 
s 533
f 531/531 532/532 533/533 
s 534
f 532/532 531/531 534/534 
s 535
f 535/535 536/536 537/537 
s 536
f 536/536 535/535 538/538 
s 537
f 539/539 540/540 541/541 
s 538
f 540/540 539/539 542/542 
s 539
f 543/543 544/544 545/545 
s 540
f 544/544 543/543 546/546 
s 541
f 547/547 548/548 549/549 
s 542
f 548/548 547/547 550/550 
s 543
f 551/551 552/552 553/553 
s 544
f 552/552 551/551 554/554 
s 545
f 555/555 556/556 557/557 
s 546
f 556/556 555/555 558/558 
s 547
f 559/559 560/560 561/561 
s 548
f 560/560 559/559 562/562 
s 549
f 563/563 564/564 565/565 
s 550
f 564/564 563/563 566/566 
s 551
f 567/567 568/568 569/569 
s 552
f 570/570 568/568 567/567 
s 553
f 571/571 568/568 570/570 
s 554
f 572/572 568/568 571/571 
s 555
f 573/573 568/568 572/572 
s 556
f 573/573 574/574 568/568 
s 557
f 570/570 567/567 575/575 
s 558
f 571/571 570/570 576/576 
s 559
f 576/576 570/570 577/577 
s 560
f 577/577 570/570 578/578 
s 561
f 578/578 570/570 579/579 
s 562
f 580/580 581/581 582/582 
s 563
f 583/583 581/581 580/580 
s 564
f 583/583 584/584 581/581 
s 565
f 581/581 584/584 585/585 
s 566
f 583/583 580/580 586/586 
s 567
f 583/583 586/586 587/587 
s 568
f 586/586 588/588 587/587 
s 569
f 586/586 589/589 588/588 
s 570
f 586/586 590/590 589/589 
s 571
f 591/591 590/590 586/586 
s 572
f 591/591 586/586 592/592 
s 573
f 591/591 592/592 593/593 
s 574
f 591/591 593/593 594/594 
s 575
f 594/594 593/593 595/595 
s 576
f 594/594 595/595 596/596 
s 577
f 593/593 592/592 597/597 
s 578
f 596/596 595/595 598/598 
s 579
f 596/596 598/598 599/599 
s 580
f 600/600 596/596 599/599 
s 581
f 600/600 601/601 596/596 
s 582
f 600/600 602/602 601/601 
s 583
f 601/601 602/602 603/603 
s 584
f 599/599 598/598 604/604 
s 585
f 599/599 604/604 605/605 
s 586
f 605/605 604/604 606/606 
s 587
f 606/606 604/604 607/607 
s 588
f 607/607 604/604 608/608 
s 589
f 608/608 604/604 609/609 
s 590
f 609/609 604/604 610/610 
s 591
f 609/609 610/610 611/611 
s 592
f 609/609 611/611 612/612 
s 593
f 612/612 611/611 613/613 
s 594
f 613/613 611/611 614/614 
s 595
f 614/614 611/611 615/615 
s 596
f 614/614 615/615 616/616 
s 597
f 616/616 615/615 617/617 
s 598
f 616/616 617/617 618/618 
s 599
f 618/618 617/617 619/619 
s 600
f 619/619 617/617 620/620 
s 601
f 619/619 620/620 600/600 
s 602
f 600/600 620/620 621/621 
s 603
f 600/600 621/621 602/602 
s 604
f 603/603 602/602 622/622 
s 605
f 603/603 622/622 623/623 
s 606
f 603/603 623/623 624/624 
s 607
f 624/624 623/623 625/625 
s 608
f 624/624 625/625 626/626 
s 609
f 624/624 626/626 627/627 
s 610
f 623/623 622/622 628/628 
s 611
f 627/627 626/626 584/584 
s 612
f 627/627 584/584 583/583 
s 613
f 629/629 630/630 631/631 
s 614
f 629/629 632/632 630/630 
s 615
f 630/630 632/632 633/633 
s 616
f 630/630 633/633 634/634 
s 617
f 629/629 635/635 632/632 
s 618
f 636/636 635/635 629/629 
s 619
f 636/636 629/629 637/637 
s 620
f 637/637 629/629 638/638 
s 621
f 638/638 629/629 639/639 
s 622
f 633/633 632/632 640/640 
s 623
f 641/641 642/642 643/643 
s 624
f 642/642 641/641 644/644 
s 625
f 645/645 646/646 647/647 
s 626
f 646/646 645/645 648/648 
s 627
f 649/649 650/650 651/651 
s 628
f 650/650 649/649 652/652 
s 629
f 653/653 654/654 655/655 
s 630
f 654/654 653/653 656/656 
s 631
f 657/657 658/658 659/659 
s 632
f 658/658 657/657 660/660 
s 633
f 661/661 662/662 663/663 
s 634
f 662/662 661/661 664/664 
s 635
f 665/665 666/666 667/667 
s 636
f 666/666 665/665 668/668 
s 637
f 669/669 668/668 665/665 
s 638
f 668/668 669/669 670/670 
s 639
f 671/671 672/672 673/673 
s 640
f 672/672 671/671 674/674 
s 641
f 675/675 676/676 677/677 
s 642
f 676/676 675/675 678/678 
s 643
f 679/679 680/680 681/681 
s 644
f 680/680 679/679 682/682 
s 645
f 683/683 684/684 685/685 
s 646
f 684/684 683/683 686/686 
s 647
f 687/687 688/688 689/689 
s 648
f 688/688 687/687 690/690 
s 649
f 691/691 692/692 693/693 
s 650
f 692/692 691/691 694/694 
s 651
f 695/695 696/696 697/697 
s 652
f 696/696 695/695 698/698 
s 653
f 699/699 700/700 701/701 
s 654
f 700/700 699/699 702/702 
s 655
f 703/703 704/704 705/705 
s 656
f 704/704 703/703 706/706 
s 657
f 707/707 708/708 709/709 
s 658
f 708/708 707/707 710/710 
s 659
f 711/711 712/712 713/713 
s 660
f 712/712 711/711 714/714 
s 661
f 715/715 716/716 717/717 
s 662
f 716/716 715/715 718/718 
s 663
f 719/719 720/720 721/721 
s 664
f 720/720 719/719 722/722 
s 665
f 723/723 724/724 725/725 
s 666
f 724/724 723/723 726/726 
s 667
f 727/727 728/728 729/729 
s 668
f 728/728 727/727 730/730 
s 669
f 731/731 732/732 733/733 
s 670
f 732/732 731/731 734/734 
s 671
f 735/735 736/736 737/737 
s 672
f 736/736 735/735 738/738 
s 673
f 739/739 740/740 741/741 
s 674
f 740/740 739/739 742/742 
s 675
f 743/743 744/744 745/745 
s 676
f 744/744 743/743 746/746 
s 677
f 747/747 748/748 749/749 
s 678
f 748/748 747/747 750/750 
s 679
f 751/751 752/752 753/753 
s 680
f 752/752 751/751 754/754 
s 681
f 755/755 756/756 757/757 
s 682
f 756/756 755/755 758/758 
s 683
f 759/759 760/760 761/761 
s 684
f 760/760 759/759 762/762 
s 685
f 763/763 764/764 765/765 
s 686
f 764/764 763/763 766/766 
s 687
f 767/767 766/766 763/763 
s 688
f 766/766 767/767 768/768 
s 689
f 769/769 770/770 771/771 
s 690
f 770/770 769/769 772/772 
s 691
f 773/773 774/774 775/775 
s 692
f 774/774 773/773 776/776 
s 693
f 777/777 778/778 779/779 
s 694
f 778/778 777/777 780/780 
s 695
f 781/781 782/782 783/783 
s 696
f 782/782 781/781 784/784 
s 697
f 785/785 786/786 787/787 
s 698
f 786/786 785/785 788/788 
s 699
f 789/789 790/790 791/791 
s 700
f 790/790 789/789 792/792 
s 701
f 793/793 794/794 795/795 
s 702
f 794/794 793/793 796/796 
s 703
f 797/797 798/798 799/799 
s 704
f 798/798 797/797 800/800 
s 705
f 801/801 802/802 803/803 
s 706
f 802/802 801/801 804/804 
s 707
f 805/805 806/806 807/807 
s 708
f 806/806 805/805 808/808 
s 709
f 809/809 810/810 811/811 
s 710
f 810/810 809/809 812/812 
s 711
f 813/813 814/814 815/815 
s 712
f 814/814 813/813 816/816 
s 713
f 817/817 818/818 819/819 
s 714
f 818/818 817/817 820/820 
s 715
f 821/821 822/822 823/823 
s 716
f 822/822 821/821 824/824 
s 717
f 825/825 826/826 827/827 
s 718
f 826/826 825/825 828/828 
s 719
f 829/829 830/830 831/831 
s 720
f 830/830 829/829 832/832 
s 721
f 833/833 834/834 835/835 
s 722
f 834/834 833/833 836/836 
s 1445
f 837/837 838/838 839/839 
s 1446
f 838/838 837/837 840/840 
s 1447
f 841/841 840/840 837/837 
s 1448
f 840/840 841/841 842/842 
s 1449
f 843/843 842/842 841/841 
s 1450
f 842/842 843/843 844/844 
s 1451
f 845/845 844/844 843/843 
s 1452
f 844/844 845/845 846/846 
s 1453
f 847/847 846/846 845/845 
s 1454
f 846/846 847/847 848/848 
s 1455
f 849/849 848/848 847/847 
s 1456
f 848/848 849/849 850/850 
s 1457
f 851/851 850/850 849/849 
s 1458
f 850/850 851/851 852/852 
s 1459
f 853/853 852/852 851/851 
s 1460
f 852/852 853/853 854/854 
s 1461
f 855/855 854/854 853/853 
s 1462
f 854/854 855/855 856/856 
s 1463
f 857/857 856/856 855/855 
s 1464
f 856/856 857/857 858/858 
s 1465
f 859/859 858/858 857/857 
s 1466
f 858/858 859/859 860/860 
s 1467
f 861/861 860/860 859/859 
s 1468
f 860/860 861/861 862/862 
s 1469
f 863/863 862/862 861/861 
s 1470
f 862/862 863/863 864/864 
s 1471
f 865/865 864/864 863/863 
s 1472
f 864/864 865/865 866/866 
s 1473
f 867/867 866/866 865/865 
s 1474
f 866/866 867/867 868/868 
s 1475
f 869/869 868/868 867/867 
s 1476
f 868/868 869/869 870/870 
s 1477
f 871/871 870/870 869/869 
s 1478
f 870/870 871/871 872/872 
s 1479
f 873/873 872/872 871/871 
s 1480
f 872/872 873/873 874/874 
s 1481
f 875/875 874/874 873/873 
s 1482
f 874/874 875/875 876/876 
s 1483
f 877/877 876/876 875/875 
s 1484
f 876/876 877/877 878/878 
s 1485
f 879/879 878/878 877/877 
s 1486
f 878/878 879/879 880/880 
s 1487
f 881/881 880/880 879/879 
s 1488
f 880/880 881/881 882/882 
s 1489
f 883/883 882/882 881/881 
s 1490
f 882/882 883/883 884/884 
s 1491
f 839/839 884/884 883/883 
s 1492
f 884/884 839/839 838/838 
s 1493
f 885/885 886/886 887/887 
s 1494
f 886/886 885/885 888/888 
s 1495
f 889/889 888/888 885/885 
s 1496
f 888/888 889/889 890/890 
s 1497
f 891/891 890/890 889/889 
s 1498
f 890/890 891/891 892/892 
s 1499
f 893/893 892/892 891/891 
s 1500
f 892/892 893/893 894/894 
s 1501
f 895/895 894/894 893/893 
s 1502
f 894/894 895/895 896/896 
s 1503
f 897/897 896/896 895/895 
s 1504
f 896/896 897/897 898/898 
s 1505
f 899/899 898/898 897/897 
s 1506
f 898/898 899/899 900/900 
s 1507
f 901/901 900/900 899/899 
s 1508
f 900/900 901/901 902/902 
s 1509
f 903/903 902/902 901/901 
s 1510
f 902/902 903/903 904/904 
s 1511
f 905/905 904/904 903/903 
s 1512
f 904/904 905/905 906/906 
s 1513
f 907/907 906/906 905/905 
s 1514
f 906/906 907/907 908/908 
s 1515
f 909/909 908/908 907/907 
s 1516
f 908/908 909/909 910/910 
s 1517
f 911/911 910/910 909/909 
s 1518
f 910/910 911/911 912/912 
s 1519
f 913/913 912/912 911/911 
s 1520
f 912/912 913/913 914/914 
s 1521
f 915/915 914/914 913/913 
s 1522
f 914/914 915/915 916/916 
s 1523
f 917/917 916/916 915/915 
s 1524
f 916/916 917/917 918/918 
s 1525
f 919/919 918/918 917/917 
s 1526
f 918/918 919/919 920/920 
s 1527
f 921/921 920/920 919/919 
s 1528
f 920/920 921/921 922/922 
s 1529
f 923/923 922/922 921/921 
s 1530
f 922/922 923/923 924/924 
s 1531
f 925/925 924/924 923/923 
s 1532
f 924/924 925/925 926/926 
s 1533
f 927/927 926/926 925/925 
s 1534
f 926/926 927/927 928/928 
s 1535
f 929/929 928/928 927/927 
s 1536
f 928/928 929/929 930/930 
s 1537
f 931/931 930/930 929/929 
s 1538
f 930/930 931/931 932/932 
s 1539
f 887/887 932/932 931/931 
s 1540
f 932/932 887/887 886/886 
s 1541
f 933/933 934/934 935/935 
s 1542
f 934/934 933/933 936/936 
s 1543
f 937/937 936/936 933/933 
s 1544
f 936/936 937/937 938/938 
s 1545
f 939/939 938/938 937/937 
s 1546
f 938/938 939/939 940/940 
s 1547
f 941/941 940/940 939/939 
s 1548
f 940/940 941/941 942/942 
s 1549
f 943/943 942/942 941/941 
s 1550
f 942/942 943/943 944/944 
s 1551
f 945/945 944/944 943/943 
s 1552
f 944/944 945/945 946/946 
s 1553
f 947/947 946/946 945/945 
s 1554
f 946/946 947/947 948/948 
s 1555
f 949/949 948/948 947/947 
s 1556
f 948/948 949/949 950/950 
s 1557
f 951/951 950/950 949/949 
s 1558
f 950/950 951/951 952/952 
s 1559
f 953/953 952/952 951/951 
s 1560
f 952/952 953/953 954/954 
s 1561
f 955/955 954/954 953/953 
s 1562
f 954/954 955/955 956/956 
s 1563
f 957/957 956/956 955/955 
s 1564
f 956/956 957/957 958/958 
s 1565
f 935/935 958/958 957/957 
s 1566
f 958/958 935/935 934/934 
s 1567
f 959/959 960/960 961/961 
s 1568
f 960/960 959/959 962/962 
s 1569
f 963/963 962/962 959/959 
s 1570
f 962/962 963/963 964/964 
s 1571
f 965/965 964/964 963/963 
s 1572
f 964/964 965/965 966/966 
s 1573
f 967/967 966/966 965/965 
s 1574
f 966/966 967/967 968/968 
s 1575
f 969/969 968/968 967/967 
s 1576
f 968/968 969/969 970/970 
s 1577
f 971/971 970/970 969/969 
s 1578
f 970/970 971/971 972/972 
s 1579
f 973/973 972/972 971/971 
s 1580
f 972/972 973/973 974/974 
s 1581
f 975/975 974/974 973/973 
s 1582
f 974/974 975/975 976/976 
s 1583
f 977/977 976/976 975/975 
s 1584
f 976/976 977/977 978/978 
s 1585
f 979/979 978/978 977/977 
s 1586
f 978/978 979/979 980/980 
s 1587
f 981/981 980/980 979/979 
s 1588
f 980/980 981/981 982/982 
s 1589
f 961/961 982/982 981/981 
s 1590
f 982/982 961/961 960/960 
# 0 polygons - 868 triangles

